(kicad_symbol_lib
	(version 20231120)
	(generator "kicad_symbol_editor")
	(generator_version "8.0")
	(symbol "Logo_Open_Hardware_Large"
		(exclude_from_sim no)
		(in_bom no)
		(on_board no)
		(property "Reference" "#SYM"
			(at 0 12.7 0)
			(effects
				(font
					(size 1.27 1.27)
				)
				(hide yes)
			)
		)
		(property "Value" "Logo_Open_Hardware_Large"
			(at 0 -10.16 0)
			(effects
				(font
					(size 1.27 1.27)
				)
				(hide yes)
			)
		)
		(property "Footprint" ""
			(at 0 0 0)
			(effects
				(font
					(size 1.27 1.27)
				)
				(hide yes)
			)
		)
		(property "Datasheet" "~"
			(at 0 0 0)
			(effects
				(font
					(size 1.27 1.27)
				)
				(hide yes)
			)
		)
		(property "Description" "Open Hardware logo, large"
			(at 0 0 0)
			(effects
				(font
					(size 1.27 1.27)
				)
				(hide yes)
			)
		)
		(property "Sim.Enable" "0"
			(at 0 0 0)
			(effects
				(font
					(size 1.27 1.27)
				)
				(hide yes)
			)
		)
		(property "ki_keywords" "Logo"
			(at 0 0 0)
			(effects
				(font
					(size 1.27 1.27)
				)
				(hide yes)
			)
		)
		(symbol "Logo_Open_Hardware_Large_1_1"
			(polyline
				(pts
					(xy 6.731 -8.7122) (xy 6.6294 -8.6614) (xy 6.35 -8.4836) (xy 5.9944 -8.255) (xy 5.5372 -7.9502)
					(xy 5.1054 -7.6454) (xy 4.7498 -7.4168) (xy 4.4958 -7.239) (xy 4.3942 -7.1882) (xy 4.318 -7.2136)
					(xy 4.1148 -7.3152) (xy 3.81 -7.4676) (xy 3.6322 -7.5692) (xy 3.3528 -7.6708) (xy 3.2258 -7.6962)
					(xy 3.2004 -7.6708) (xy 3.0988 -7.4676) (xy 2.9464 -7.0866) (xy 2.7178 -6.604) (xy 2.4892 -6.0452)
					(xy 2.2352 -5.4356) (xy 1.9558 -4.826) (xy 1.7272 -4.2164) (xy 1.4986 -3.683) (xy 1.3208 -3.2512)
					(xy 1.2192 -2.9464) (xy 1.1684 -2.8194) (xy 1.1938 -2.794) (xy 1.3208 -2.667) (xy 1.5748 -2.4892)
					(xy 2.0828 -2.0574) (xy 2.6162 -1.397) (xy 2.921 -0.6604) (xy 3.048 0.1524) (xy 2.9464 0.9144)
					(xy 2.6416 1.6256) (xy 2.1336 2.286) (xy 1.524 2.7686) (xy 0.8128 3.0734) (xy 0 3.175) (xy -0.762 3.0988)
					(xy -1.4986 2.794) (xy -2.159 2.286) (xy -2.4384 1.9812) (xy -2.8194 1.3208) (xy -3.048 0.6096)
					(xy -3.0734 0.4318) (xy -3.0226 -0.3556) (xy -2.794 -1.0922) (xy -2.3876 -1.7526) (xy -1.8288 -2.3114)
					(xy -1.7526 -2.3622) (xy -1.4732 -2.5654) (xy -1.2954 -2.6924) (xy -1.1684 -2.8194) (xy -2.159 -5.207)
					(xy -2.3114 -5.588) (xy -2.5908 -6.2484) (xy -2.8194 -6.8072) (xy -3.0226 -7.2644) (xy -3.1496 -7.5692)
					(xy -3.2258 -7.6708) (xy -3.2258 -7.6962) (xy -3.302 -7.6962) (xy -3.4798 -7.6454) (xy -3.8354 -7.4676)
					(xy -4.0386 -7.366) (xy -4.2926 -7.239) (xy -4.4196 -7.1882) (xy -4.5212 -7.239) (xy -4.7498 -7.3914)
					(xy -5.1054 -7.6454) (xy -5.5372 -7.9248) (xy -5.9436 -8.2042) (xy -6.3246 -8.4582) (xy -6.604 -8.636)
					(xy -6.731 -8.7122) (xy -6.7564 -8.7122) (xy -6.858 -8.636) (xy -7.0866 -8.4582) (xy -7.4168 -8.1534)
					(xy -7.874 -7.6962) (xy -7.9502 -7.62) (xy -8.3312 -7.239) (xy -8.636 -6.9088) (xy -8.8392 -6.6802)
					(xy -8.9154 -6.5786) (xy -8.9154 -6.5786) (xy -8.8392 -6.4516) (xy -8.6614 -6.1722) (xy -8.4328 -5.7912)
					(xy -8.128 -5.3594) (xy -7.3152 -4.191) (xy -7.7724 -3.0988) (xy -7.8994 -2.7686) (xy -8.0772 -2.3622)
					(xy -8.2042 -2.0828) (xy -8.255 -1.9558) (xy -8.382 -1.905) (xy -8.6614 -1.8542) (xy -9.0932 -1.7526)
					(xy -9.6266 -1.651) (xy -10.1092 -1.5748) (xy -10.541 -1.4732) (xy -10.8712 -1.4224) (xy -11.0236 -1.397)
					(xy -11.049 -1.3716) (xy -11.0744 -1.2954) (xy -11.0998 -1.143) (xy -11.0998 -0.889) (xy -11.1252 -0.4572)
					(xy -11.1252 0.1524) (xy -11.1252 0.2286) (xy -11.0998 0.8128) (xy -11.0998 1.27) (xy -11.0744 1.5494)
					(xy -11.0744 1.6764) (xy -11.0744 1.6764) (xy -10.922 1.7018) (xy -10.6172 1.778) (xy -10.16 1.8542)
					(xy -9.652 1.9558) (xy -9.6012 1.9812) (xy -9.0932 2.0828) (xy -8.636 2.159) (xy -8.3312 2.2352)
					(xy -8.2042 2.286) (xy -8.1788 2.3114) (xy -8.0772 2.5146) (xy -7.9248 2.8448) (xy -7.747 3.2512)
					(xy -7.5692 3.6576) (xy -7.4168 4.0386) (xy -7.3152 4.318) (xy -7.2898 4.445) (xy -7.2898 4.445)
					(xy -7.366 4.572) (xy -7.5438 4.826) (xy -7.7978 5.207) (xy -8.128 5.6642) (xy -8.128 5.6896) (xy -8.4328 6.1468)
					(xy -8.6868 6.5278) (xy -8.8392 6.7818) (xy -8.9154 6.9088) (xy -8.9154 6.9088) (xy -8.8138 7.0358)
					(xy -8.5852 7.2898) (xy -8.255 7.6454) (xy -7.874 8.0264) (xy -7.747 8.1534) (xy -7.3152 8.5852)
					(xy -7.0104 8.8646) (xy -6.8326 8.9916) (xy -6.731 9.0424) (xy -6.731 9.0424) (xy -6.604 8.9408)
					(xy -6.3246 8.763) (xy -5.9436 8.509) (xy -5.4864 8.2042) (xy -5.461 8.1788) (xy -5.0038 7.874)
					(xy -4.6482 7.62) (xy -4.3688 7.4422) (xy -4.2672 7.3914) (xy -4.2418 7.3914) (xy -4.064 7.4422)
					(xy -3.7338 7.5438) (xy -3.3528 7.6962) (xy -2.9464 7.874) (xy -2.5654 8.0264) (xy -2.286 8.1534)
					(xy -2.159 8.2296) (xy -2.159 8.2296) (xy -2.1082 8.382) (xy -2.032 8.7122) (xy -1.9304 9.1694)
					(xy -1.8288 9.7282) (xy -1.8034 9.8044) (xy -1.7018 10.3378) (xy -1.6256 10.7696) (xy -1.5748 11.0744)
					(xy -1.524 11.2014) (xy -1.4478 11.2268) (xy -1.1938 11.2522) (xy -0.8128 11.2522) (xy -0.3302 11.2522)
					(xy 0.1524 11.2522) (xy 0.6604 11.2522) (xy 1.0668 11.2268) (xy 1.3716 11.2014) (xy 1.4986 11.176)
					(xy 1.4986 11.176) (xy 1.5494 11.0236) (xy 1.6256 10.6934) (xy 1.7018 10.2108) (xy 1.8288 9.6774)
					(xy 1.8288 9.5758) (xy 1.9304 9.0424) (xy 2.032 8.6106) (xy 2.0828 8.3058) (xy 2.1336 8.2042) (xy 2.159 8.1788)
					(xy 2.3876 8.0772) (xy 2.7432 7.9248) (xy 3.175 7.747) (xy 4.191 7.3406) (xy 5.461 8.2042) (xy 5.5626 8.2804)
					(xy 6.0198 8.5852) (xy 6.3754 8.8392) (xy 6.6294 8.9916) (xy 6.7564 9.0424) (xy 6.7564 9.0424)
					(xy 6.8834 8.9408) (xy 7.1374 8.7122) (xy 7.4676 8.382) (xy 7.8486 7.9756) (xy 8.1534 7.6962) (xy 8.4836 7.3406)
					(xy 8.7122 7.112) (xy 8.8392 6.9596) (xy 8.8646 6.858) (xy 8.8646 6.8072) (xy 8.7884 6.6802) (xy 8.6106 6.4008)
					(xy 8.3312 6.0198) (xy 8.0264 5.588) (xy 7.7978 5.207) (xy 7.5184 4.8006) (xy 7.3406 4.4958) (xy 7.2898 4.3434)
					(xy 7.2898 4.2926) (xy 7.3914 4.0386) (xy 7.5184 3.683) (xy 7.7216 3.2258) (xy 8.1534 2.2352) (xy 8.7884 2.1082)
					(xy 9.1948 2.0574) (xy 9.7536 1.9304) (xy 10.2616 1.8288) (xy 11.0998 1.6764) (xy 11.1252 -1.3208)
					(xy 10.9982 -1.3716) (xy 10.8712 -1.397) (xy 10.5664 -1.4732) (xy 10.1346 -1.5494) (xy 9.6266 -1.651)
					(xy 9.1948 -1.7272) (xy 8.7376 -1.8288) (xy 8.4328 -1.8796) (xy 8.2804 -1.905) (xy 8.255 -1.9558)
					(xy 8.1534 -2.159) (xy 7.9756 -2.5146) (xy 7.8232 -2.921) (xy 7.6454 -3.3274) (xy 7.493 -3.7338)
					(xy 7.366 -4.0132) (xy 7.3406 -4.191) (xy 7.3914 -4.2926) (xy 7.5692 -4.5466) (xy 7.7978 -4.9276)
					(xy 8.1026 -5.3594) (xy 8.4074 -5.7912) (xy 8.6614 -6.1722) (xy 8.8138 -6.4262) (xy 8.89 -6.5532)
					(xy 8.8646 -6.6548) (xy 8.6868 -6.858) (xy 8.3566 -7.1882) (xy 7.874 -7.6708) (xy 7.7978 -7.747)
					(xy 7.3914 -8.128) (xy 7.0612 -8.4328) (xy 6.8326 -8.636) (xy 6.731 -8.7122)
				)
				(stroke
					(width 0)
					(type default)
				)
				(fill
					(type outline)
				)
			)
		)
	)
	(symbol "Logo_Open_Hardware_Small"
		(exclude_from_sim no)
		(in_bom no)
		(on_board no)
		(property "Reference" "#SYM"
			(at 0 6.985 0)
			(effects
				(font
					(size 1.27 1.27)
				)
				(hide yes)
			)
		)
		(property "Value" "Logo_Open_Hardware_Small"
			(at 0 -5.715 0)
			(effects
				(font
					(size 1.27 1.27)
				)
				(hide yes)
			)
		)
		(property "Footprint" ""
			(at 0 0 0)
			(effects
				(font
					(size 1.27 1.27)
				)
				(hide yes)
			)
		)
		(property "Datasheet" "~"
			(at 0 0 0)
			(effects
				(font
					(size 1.27 1.27)
				)
				(hide yes)
			)
		)
		(property "Description" "Open Hardware logo, small"
			(at 0 0 0)
			(effects
				(font
					(size 1.27 1.27)
				)
				(hide yes)
			)
		)
		(property "Sim.Enable" "0"
			(at 0 0 0)
			(effects
				(font
					(size 1.27 1.27)
				)
				(hide yes)
			)
		)
		(property "ki_keywords" "Logo"
			(at 0 0 0)
			(effects
				(font
					(size 1.27 1.27)
				)
				(hide yes)
			)
		)
		(symbol "Logo_Open_Hardware_Small_0_1"
			(polyline
				(pts
					(xy 3.3528 -4.3434) (xy 3.302 -4.318) (xy 3.175 -4.2418) (xy 2.9972 -4.1148) (xy 2.7686 -3.9624)
					(xy 2.54 -3.81) (xy 2.3622 -3.7084) (xy 2.2352 -3.6068) (xy 2.1844 -3.5814) (xy 2.159 -3.6068)
					(xy 2.0574 -3.6576) (xy 1.905 -3.7338) (xy 1.8034 -3.7846) (xy 1.6764 -3.8354) (xy 1.6002 -3.8354)
					(xy 1.6002 -3.8354) (xy 1.5494 -3.7338) (xy 1.4732 -3.5306) (xy 1.3462 -3.302) (xy 1.2446 -3.0226)
					(xy 1.1176 -2.7178) (xy 0.9652 -2.413) (xy 0.8636 -2.1082) (xy 0.7366 -1.8288) (xy 0.6604 -1.6256)
					(xy 0.6096 -1.4732) (xy 0.5842 -1.397) (xy 0.5842 -1.397) (xy 0.6604 -1.3208) (xy 0.7874 -1.2446)
					(xy 1.0414 -1.016) (xy 1.2954 -0.6858) (xy 1.4478 -0.3302) (xy 1.524 0.0762) (xy 1.4732 0.4572)
					(xy 1.3208 0.8128) (xy 1.0668 1.143) (xy 0.762 1.3716) (xy 0.4064 1.524) (xy 0 1.5748) (xy -0.381 1.5494)
					(xy -0.7366 1.397) (xy -1.0668 1.143) (xy -1.2192 0.9906) (xy -1.397 0.6604) (xy -1.524 0.3048)
					(xy -1.524 0.2286) (xy -1.4986 -0.1778) (xy -1.397 -0.5334) (xy -1.1938 -0.8636) (xy -0.9144 -1.143)
					(xy -0.8636 -1.1684) (xy -0.7366 -1.27) (xy -0.635 -1.3462) (xy -0.5842 -1.397) (xy -1.0668 -2.5908)
					(xy -1.143 -2.794) (xy -1.2954 -3.1242) (xy -1.397 -3.4036) (xy -1.4986 -3.6322) (xy -1.5748 -3.7846)
					(xy -1.6002 -3.8354) (xy -1.6002 -3.8354) (xy -1.651 -3.8354) (xy -1.7272 -3.81) (xy -1.905 -3.7338)
					(xy -2.0066 -3.683) (xy -2.1336 -3.6068) (xy -2.2098 -3.5814) (xy -2.2606 -3.6068) (xy -2.3622 -3.683)
					(xy -2.54 -3.81) (xy -2.7686 -3.9624) (xy -2.9718 -4.0894) (xy -3.1496 -4.2164) (xy -3.302 -4.318)
					(xy -3.3528 -4.3434) (xy -3.3782 -4.3434) (xy -3.429 -4.318) (xy -3.5306 -4.2164) (xy -3.7084 -4.064)
					(xy -3.937 -3.8354) (xy -3.9624 -3.81) (xy -4.1656 -3.6068) (xy -4.318 -3.4544) (xy -4.4196 -3.3274)
					(xy -4.445 -3.2766) (xy -4.445 -3.2766) (xy -4.4196 -3.2258) (xy -4.318 -3.0734) (xy -4.2164 -2.8956)
					(xy -4.064 -2.667) (xy -3.6576 -2.0828) (xy -3.8862 -1.5494) (xy -3.937 -1.3716) (xy -4.0386 -1.1684)
					(xy -4.0894 -1.0414) (xy -4.1148 -0.9652) (xy -4.191 -0.9398) (xy -4.318 -0.9144) (xy -4.5466 -0.8636)
					(xy -4.8006 -0.8128) (xy -5.0546 -0.7874) (xy -5.2578 -0.7366) (xy -5.4356 -0.7112) (xy -5.5118 -0.6858)
					(xy -5.5118 -0.6858) (xy -5.5372 -0.635) (xy -5.5372 -0.5588) (xy -5.5372 -0.4318) (xy -5.5626 -0.2286)
					(xy -5.5626 0.0762) (xy -5.5626 0.127) (xy -5.5372 0.4064) (xy -5.5372 0.635) (xy -5.5372 0.762)
					(xy -5.5372 0.8382) (xy -5.5372 0.8382) (xy -5.461 0.8382) (xy -5.3086 0.889) (xy -5.08 0.9144)
					(xy -4.826 0.9652) (xy -4.8006 0.9906) (xy -4.5466 1.0414) (xy -4.318 1.0668) (xy -4.1656 1.1176)
					(xy -4.0894 1.143) (xy -4.0894 1.143) (xy -4.0386 1.2446) (xy -3.9624 1.4224) (xy -3.8608 1.6256)
					(xy -3.7846 1.8288) (xy -3.7084 2.0066) (xy -3.6576 2.159) (xy -3.6322 2.2098) (xy -3.6322 2.2098)
					(xy -3.683 2.286) (xy -3.7592 2.413) (xy -3.8862 2.5908) (xy -4.064 2.8194) (xy -4.064 2.8448)
					(xy -4.2164 3.0734) (xy -4.3434 3.2512) (xy -4.4196 3.3782) (xy -4.445 3.4544) (xy -4.445 3.4544)
					(xy -4.3942 3.5052) (xy -4.2926 3.6322) (xy -4.1148 3.81) (xy -3.937 4.0132) (xy -3.8608 4.064)
					(xy -3.6576 4.2926) (xy -3.5052 4.4196) (xy -3.4036 4.4958) (xy -3.3528 4.5212) (xy -3.3528 4.5212)
					(xy -3.302 4.4704) (xy -3.1496 4.3688) (xy -2.9718 4.2418) (xy -2.7432 4.0894) (xy -2.7178 4.0894)
					(xy -2.4892 3.937) (xy -2.3114 3.81) (xy -2.1844 3.7084) (xy -2.1336 3.683) (xy -2.1082 3.683)
					(xy -2.032 3.7084) (xy -1.8542 3.7592) (xy -1.6764 3.8354) (xy -1.4732 3.937) (xy -1.27 4.0132)
					(xy -1.143 4.064) (xy -1.0668 4.1148) (xy -1.0668 4.1148) (xy -1.0414 4.191) (xy -1.016 4.3434)
					(xy -0.9652 4.572) (xy -0.9144 4.8514) (xy -0.889 4.9022) (xy -0.8382 5.1562) (xy -0.8128 5.3848)
					(xy -0.7874 5.5372) (xy -0.762 5.588) (xy -0.7112 5.6134) (xy -0.5842 5.6134) (xy -0.4064 5.6134)
					(xy -0.1524 5.6134) (xy 0.0762 5.6134) (xy 0.3302 5.6134) (xy 0.5334 5.6134) (xy 0.6858 5.588)
					(xy 0.7366 5.588) (xy 0.7366 5.588) (xy 0.762 5.5118) (xy 0.8128 5.334) (xy 0.8382 5.1054) (xy 0.9144 4.826)
					(xy 0.9144 4.7752) (xy 0.9652 4.5212) (xy 1.016 4.2926) (xy 1.0414 4.1402) (xy 1.0668 4.0894) (xy 1.0668 4.0894)
					(xy 1.1938 4.0386) (xy 1.3716 3.9624) (xy 1.5748 3.8608) (xy 2.0828 3.6576) (xy 2.7178 4.0894)
					(xy 2.7686 4.1402) (xy 2.9972 4.2926) (xy 3.175 4.4196) (xy 3.302 4.4958) (xy 3.3782 4.5212) (xy 3.3782 4.5212)
					(xy 3.429 4.4704) (xy 3.556 4.3434) (xy 3.7338 4.191) (xy 3.9116 3.9878) (xy 4.064 3.8354) (xy 4.2418 3.6576)
					(xy 4.3434 3.556) (xy 4.4196 3.4798) (xy 4.4196 3.429) (xy 4.4196 3.4036) (xy 4.3942 3.3274) (xy 4.2926 3.2004)
					(xy 4.1656 2.9972) (xy 4.0132 2.794) (xy 3.8862 2.5908) (xy 3.7592 2.3876) (xy 3.6576 2.2352) (xy 3.6322 2.159)
					(xy 3.6322 2.1336) (xy 3.683 2.0066) (xy 3.7592 1.8288) (xy 3.8608 1.6002) (xy 4.064 1.1176) (xy 4.3942 1.0414)
					(xy 4.5974 1.016) (xy 4.8768 0.9652) (xy 5.1308 0.9144) (xy 5.5372 0.8382) (xy 5.5626 -0.6604)
					(xy 5.4864 -0.6858) (xy 5.4356 -0.6858) (xy 5.2832 -0.7366) (xy 5.0546 -0.762) (xy 4.8006 -0.8128)
					(xy 4.5974 -0.8636) (xy 4.3688 -0.9144) (xy 4.2164 -0.9398) (xy 4.1402 -0.9398) (xy 4.1148 -0.9652)
					(xy 4.064 -1.0668) (xy 3.9878 -1.2446) (xy 3.9116 -1.4478) (xy 3.81 -1.651) (xy 3.7338 -1.8542)
					(xy 3.683 -2.0066) (xy 3.6576 -2.0828) (xy 3.683 -2.1336) (xy 3.7846 -2.2606) (xy 3.8862 -2.4638)
					(xy 4.0386 -2.667) (xy 4.191 -2.8956) (xy 4.318 -3.0734) (xy 4.3942 -3.2004) (xy 4.445 -3.2766)
					(xy 4.4196 -3.3274) (xy 4.3434 -3.429) (xy 4.1656 -3.5814) (xy 3.937 -3.8354) (xy 3.8862 -3.8608)
					(xy 3.683 -4.064) (xy 3.5306 -4.2164) (xy 3.4036 -4.318) (xy 3.3528 -4.3434)
				)
				(stroke
					(width 0)
					(type default)
				)
				(fill
					(type outline)
				)
			)
		)
	)
	(symbol "SYM_Arrow45_Large"
		(exclude_from_sim no)
		(in_bom no)
		(on_board no)
		(property "Reference" "#SYM"
			(at 0 4.064 0)
			(effects
				(font
					(size 1.27 1.27)
				)
				(hide yes)
			)
		)
		(property "Value" "SYM_Arrow45_Large"
			(at 0 -3.556 0)
			(effects
				(font
					(size 1.27 1.27)
				)
				(hide yes)
			)
		)
		(property "Footprint" ""
			(at 0 0 0)
			(effects
				(font
					(size 1.27 1.27)
				)
				(hide yes)
			)
		)
		(property "Datasheet" "~"
			(at 0 0 0)
			(effects
				(font
					(size 1.27 1.27)
				)
				(hide yes)
			)
		)
		(property "Description" "Filled 45° arrow, 300mil"
			(at 0 0 0)
			(effects
				(font
					(size 1.27 1.27)
				)
				(hide yes)
			)
		)
		(property "Sim.Enable" "0"
			(at 0 0 0)
			(effects
				(font
					(size 1.27 1.27)
				)
				(hide yes)
			)
		)
		(property "ki_keywords" "symbol arrow angled 45°"
			(at 0 0 0)
			(effects
				(font
					(size 1.27 1.27)
				)
				(hide yes)
			)
		)
		(symbol "SYM_Arrow45_Large_0_1"
			(polyline
				(pts
					(xy -2.54 2.54) (xy 2.286 -2.286)
				)
				(stroke
					(width 0.508)
					(type default)
				)
				(fill
					(type none)
				)
			)
			(polyline
				(pts
					(xy 2.794 -2.794) (xy 0.508 -1.778) (xy 1.778 -0.508) (xy 2.794 -2.794)
				)
				(stroke
					(width 0)
					(type default)
				)
				(fill
					(type outline)
				)
			)
		)
	)
	(symbol "SYM_Arrow45_Normal"
		(exclude_from_sim no)
		(in_bom no)
		(on_board no)
		(property "Reference" "#SYM"
			(at 3.81 1.27 0)
			(effects
				(font
					(size 1.27 1.27)
				)
				(hide yes)
			)
		)
		(property "Value" "SYM_Arrow45_Normal"
			(at 0 -2.54 0)
			(effects
				(font
					(size 1.27 1.27)
				)
				(hide yes)
			)
		)
		(property "Footprint" ""
			(at 0 0 0)
			(effects
				(font
					(size 1.27 1.27)
				)
				(hide yes)
			)
		)
		(property "Datasheet" "~"
			(at 0 0 0)
			(effects
				(font
					(size 1.27 1.27)
				)
				(hide yes)
			)
		)
		(property "Description" "Filled 45° arrow, 200mil"
			(at 0 0 0)
			(effects
				(font
					(size 1.27 1.27)
				)
				(hide yes)
			)
		)
		(property "Sim.Enable" "0"
			(at 0 0 0)
			(effects
				(font
					(size 1.27 1.27)
				)
				(hide yes)
			)
		)
		(property "ki_keywords" "symbol arrow angled 45°"
			(at 0 0 0)
			(effects
				(font
					(size 1.27 1.27)
				)
				(hide yes)
			)
		)
		(symbol "SYM_Arrow45_Normal_0_1"
			(polyline
				(pts
					(xy 1.524 -1.524) (xy -1.778 1.778)
				)
				(stroke
					(width 0.254)
					(type default)
				)
				(fill
					(type none)
				)
			)
			(polyline
				(pts
					(xy 1.778 -1.778) (xy 0.254 -1.016) (xy 1.016 -0.254) (xy 1.778 -1.778)
				)
				(stroke
					(width 0)
					(type default)
				)
				(fill
					(type outline)
				)
			)
		)
	)
	(symbol "SYM_Arrow45_Small"
		(exclude_from_sim no)
		(in_bom no)
		(on_board no)
		(property "Reference" "#SYM"
			(at 4.318 1.016 0)
			(effects
				(font
					(size 1.27 1.27)
				)
				(hide yes)
			)
		)
		(property "Value" "SYM_Arrow45_Small"
			(at 0 -2.286 0)
			(effects
				(font
					(size 1.27 1.27)
				)
				(hide yes)
			)
		)
		(property "Footprint" ""
			(at 0 0 0)
			(effects
				(font
					(size 1.27 1.27)
				)
				(hide yes)
			)
		)
		(property "Datasheet" "~"
			(at 0 0 0)
			(effects
				(font
					(size 1.27 1.27)
				)
				(hide yes)
			)
		)
		(property "Description" "Filled 45° arrow, 160mil"
			(at 0 0 0)
			(effects
				(font
					(size 1.27 1.27)
				)
				(hide yes)
			)
		)
		(property "Sim.Enable" "0"
			(at 0 0 0)
			(effects
				(font
					(size 1.27 1.27)
				)
				(hide yes)
			)
		)
		(property "ki_keywords" "symbol arrow angled 45°"
			(at 0 0 0)
			(effects
				(font
					(size 1.27 1.27)
				)
				(hide yes)
			)
		)
		(symbol "SYM_Arrow45_Small_0_1"
			(polyline
				(pts
					(xy 1.27 -1.27) (xy -1.524 1.524)
				)
				(stroke
					(width 0.254)
					(type default)
				)
				(fill
					(type none)
				)
			)
			(polyline
				(pts
					(xy 1.524 -1.524) (xy 0.254 -1.016) (xy 1.016 -0.254) (xy 1.524 -1.524)
				)
				(stroke
					(width 0)
					(type default)
				)
				(fill
					(type outline)
				)
			)
		)
	)
	(symbol "SYM_Arrow45_Tiny"
		(exclude_from_sim no)
		(in_bom no)
		(on_board no)
		(property "Reference" "#SYM"
			(at 4.064 1.27 0)
			(effects
				(font
					(size 1.27 1.27)
				)
				(hide yes)
			)
		)
		(property "Value" "SYM_Arrow45_Tiny"
			(at 0 -1.778 0)
			(effects
				(font
					(size 1.27 1.27)
				)
				(hide yes)
			)
		)
		(property "Footprint" ""
			(at 0 0 0)
			(effects
				(font
					(size 1.27 1.27)
				)
				(hide yes)
			)
		)
		(property "Datasheet" "~"
			(at 0 0 0)
			(effects
				(font
					(size 1.27 1.27)
				)
				(hide yes)
			)
		)
		(property "Description" "Filled 45° arrow, 100mil"
			(at 0 0 0)
			(effects
				(font
					(size 1.27 1.27)
				)
				(hide yes)
			)
		)
		(property "Sim.Enable" "0"
			(at 0 0 0)
			(effects
				(font
					(size 1.27 1.27)
				)
				(hide yes)
			)
		)
		(property "ki_keywords" "symbol arrow angled 45°"
			(at 0 0 0)
			(effects
				(font
					(size 1.27 1.27)
				)
				(hide yes)
			)
		)
		(symbol "SYM_Arrow45_Tiny_0_1"
			(polyline
				(pts
					(xy 0.508 -0.762) (xy -1.016 0.762)
				)
				(stroke
					(width 0)
					(type default)
				)
				(fill
					(type none)
				)
			)
			(polyline
				(pts
					(xy 0.508 -0.762) (xy -0.254 -0.508) (xy 0.254 0) (xy 0.508 -0.762)
				)
				(stroke
					(width 0)
					(type default)
				)
				(fill
					(type outline)
				)
			)
		)
	)
	(symbol "SYM_Arrow45_XLarge"
		(exclude_from_sim no)
		(in_bom no)
		(on_board no)
		(property "Reference" "#SYM"
			(at 2.794 2.54 0)
			(effects
				(font
					(size 1.27 1.27)
				)
				(hide yes)
			)
		)
		(property "Value" "SYM_Arrow45_XLarge"
			(at 0 -4.572 0)
			(effects
				(font
					(size 1.27 1.27)
				)
				(hide yes)
			)
		)
		(property "Footprint" ""
			(at 0 0 0)
			(effects
				(font
					(size 1.27 1.27)
				)
				(hide yes)
			)
		)
		(property "Datasheet" "~"
			(at 0 0 0)
			(effects
				(font
					(size 1.27 1.27)
				)
				(hide yes)
			)
		)
		(property "Description" "Filled 45° arrow, 400mil"
			(at 0 0 0)
			(effects
				(font
					(size 1.27 1.27)
				)
				(hide yes)
			)
		)
		(property "Sim.Enable" "0"
			(at 0 0 0)
			(effects
				(font
					(size 1.27 1.27)
				)
				(hide yes)
			)
		)
		(property "ki_keywords" "symbol arrow 45° angled"
			(at 0 0 0)
			(effects
				(font
					(size 1.27 1.27)
				)
				(hide yes)
			)
		)
		(symbol "SYM_Arrow45_XLarge_0_1"
			(polyline
				(pts
					(xy 3.048 -3.048) (xy -3.556 3.556)
				)
				(stroke
					(width 0.508)
					(type default)
				)
				(fill
					(type none)
				)
			)
			(polyline
				(pts
					(xy 3.556 -3.556) (xy 0.508 -2.286) (xy 2.286 -0.508) (xy 3.556 -3.556)
				)
				(stroke
					(width 0)
					(type default)
				)
				(fill
					(type outline)
				)
			)
		)
	)
	(symbol "SYM_Arrow_Large"
		(exclude_from_sim no)
		(in_bom no)
		(on_board no)
		(property "Reference" "#SYM"
			(at 0 2.286 0)
			(effects
				(font
					(size 1.27 1.27)
				)
				(hide yes)
			)
		)
		(property "Value" "SYM_Arrow_Large"
			(at 0 -2.032 0)
			(effects
				(font
					(size 1.27 1.27)
				)
				(hide yes)
			)
		)
		(property "Footprint" ""
			(at 0 0 0)
			(effects
				(font
					(size 1.27 1.27)
				)
				(hide yes)
			)
		)
		(property "Datasheet" "~"
			(at 0 0 0)
			(effects
				(font
					(size 1.27 1.27)
				)
				(hide yes)
			)
		)
		(property "Description" "Filled arrow, 300mil"
			(at 0 0 0)
			(effects
				(font
					(size 1.27 1.27)
				)
				(hide yes)
			)
		)
		(property "Sim.Enable" "0"
			(at 0 0 0)
			(effects
				(font
					(size 1.27 1.27)
				)
				(hide yes)
			)
		)
		(property "ki_keywords" "symbol arrow"
			(at 0 0 0)
			(effects
				(font
					(size 1.27 1.27)
				)
				(hide yes)
			)
		)
		(symbol "SYM_Arrow_Large_0_1"
			(polyline
				(pts
					(xy 2.54 0) (xy -3.81 0)
				)
				(stroke
					(width 0.508)
					(type default)
				)
				(fill
					(type none)
				)
			)
			(polyline
				(pts
					(xy 3.81 0) (xy 1.27 -0.762) (xy 1.27 0.762) (xy 3.81 0)
				)
				(stroke
					(width 0)
					(type default)
				)
				(fill
					(type outline)
				)
			)
		)
	)
	(symbol "SYM_Arrow_Normal"
		(exclude_from_sim no)
		(in_bom no)
		(on_board no)
		(property "Reference" "#SYM"
			(at 0 1.524 0)
			(effects
				(font
					(size 1.27 1.27)
				)
				(hide yes)
			)
		)
		(property "Value" "SYM_Arrow_Normal"
			(at 0.254 -1.27 0)
			(effects
				(font
					(size 1.27 1.27)
				)
				(hide yes)
			)
		)
		(property "Footprint" ""
			(at 0 0 0)
			(effects
				(font
					(size 1.27 1.27)
				)
				(hide yes)
			)
		)
		(property "Datasheet" "~"
			(at 0 0 0)
			(effects
				(font
					(size 1.27 1.27)
				)
				(hide yes)
			)
		)
		(property "Description" "Filled arrow, 200mil"
			(at 0 0 0)
			(effects
				(font
					(size 1.27 1.27)
				)
				(hide yes)
			)
		)
		(property "Sim.Enable" "0"
			(at 0 0 0)
			(effects
				(font
					(size 1.27 1.27)
				)
				(hide yes)
			)
		)
		(property "ki_keywords" "symbol arrow"
			(at 0 0 0)
			(effects
				(font
					(size 1.27 1.27)
				)
				(hide yes)
			)
		)
		(symbol "SYM_Arrow_Normal_0_1"
			(polyline
				(pts
					(xy 1.524 0) (xy -2.54 0)
				)
				(stroke
					(width 0.254)
					(type default)
				)
				(fill
					(type none)
				)
			)
			(polyline
				(pts
					(xy 2.54 0) (xy 0.762 -0.508) (xy 0.762 0.508) (xy 2.54 0)
				)
				(stroke
					(width 0)
					(type default)
				)
				(fill
					(type outline)
				)
			)
		)
	)
	(symbol "SYM_Arrow_Small"
		(exclude_from_sim no)
		(in_bom no)
		(on_board no)
		(property "Reference" "#SYM"
			(at 0 1.524 0)
			(effects
				(font
					(size 1.27 1.27)
				)
				(hide yes)
			)
		)
		(property "Value" "SYM_Arrow_Small"
			(at 0.254 -1.27 0)
			(effects
				(font
					(size 1.27 1.27)
				)
				(hide yes)
			)
		)
		(property "Footprint" ""
			(at 0 0 0)
			(effects
				(font
					(size 1.27 1.27)
				)
				(hide yes)
			)
		)
		(property "Datasheet" "~"
			(at 0 0 0)
			(effects
				(font
					(size 1.27 1.27)
				)
				(hide yes)
			)
		)
		(property "Description" "Filled arrow, 160mil"
			(at 0 0 0)
			(effects
				(font
					(size 1.27 1.27)
				)
				(hide yes)
			)
		)
		(property "Sim.Enable" "0"
			(at 0 0 0)
			(effects
				(font
					(size 1.27 1.27)
				)
				(hide yes)
			)
		)
		(property "ki_keywords" "symbol arrow"
			(at 0 0 0)
			(effects
				(font
					(size 1.27 1.27)
				)
				(hide yes)
			)
		)
		(symbol "SYM_Arrow_Small_0_1"
			(polyline
				(pts
					(xy 1.524 0) (xy -2.032 0)
				)
				(stroke
					(width 0.254)
					(type default)
				)
				(fill
					(type none)
				)
			)
			(polyline
				(pts
					(xy 2.032 0) (xy 0.762 -0.508) (xy 0.762 0.508) (xy 2.032 0)
				)
				(stroke
					(width 0)
					(type default)
				)
				(fill
					(type outline)
				)
			)
		)
	)
	(symbol "SYM_Arrow_Tiny"
		(exclude_from_sim no)
		(in_bom no)
		(on_board no)
		(property "Reference" "#SYM"
			(at 0 1.524 0)
			(effects
				(font
					(size 1.27 1.27)
				)
				(hide yes)
			)
		)
		(property "Value" "SYM_Arrow_Tiny"
			(at 0.254 -1.27 0)
			(effects
				(font
					(size 1.27 1.27)
				)
				(hide yes)
			)
		)
		(property "Footprint" ""
			(at 0 0 0)
			(effects
				(font
					(size 1.27 1.27)
				)
				(hide yes)
			)
		)
		(property "Datasheet" "~"
			(at 0 0 0)
			(effects
				(font
					(size 1.27 1.27)
				)
				(hide yes)
			)
		)
		(property "Description" "Filled arrow, 100mil"
			(at 0 0 0)
			(effects
				(font
					(size 1.27 1.27)
				)
				(hide yes)
			)
		)
		(property "Sim.Enable" "0"
			(at 0 0 0)
			(effects
				(font
					(size 1.27 1.27)
				)
				(hide yes)
			)
		)
		(property "ki_keywords" "symbol arrow"
			(at 0 0 0)
			(effects
				(font
					(size 1.27 1.27)
				)
				(hide yes)
			)
		)
		(symbol "SYM_Arrow_Tiny_0_1"
			(polyline
				(pts
					(xy 1.27 0) (xy -1.27 0)
				)
				(stroke
					(width 0)
					(type default)
				)
				(fill
					(type none)
				)
			)
			(polyline
				(pts
					(xy 1.27 0) (xy 0.508 -0.254) (xy 0.508 0.254) (xy 1.27 0)
				)
				(stroke
					(width 0)
					(type default)
				)
				(fill
					(type outline)
				)
			)
		)
	)
	(symbol "SYM_Arrow_XLarge"
		(exclude_from_sim no)
		(in_bom no)
		(on_board no)
		(property "Reference" "#SYM"
			(at 0 2.286 0)
			(effects
				(font
					(size 1.27 1.27)
				)
				(hide yes)
			)
		)
		(property "Value" "SYM_Arrow_XLarge"
			(at 0 -2.032 0)
			(effects
				(font
					(size 1.27 1.27)
				)
				(hide yes)
			)
		)
		(property "Footprint" ""
			(at 0 0 0)
			(effects
				(font
					(size 1.27 1.27)
				)
				(hide yes)
			)
		)
		(property "Datasheet" "~"
			(at 0 0 0)
			(effects
				(font
					(size 1.27 1.27)
				)
				(hide yes)
			)
		)
		(property "Description" "Filled arrow, 400mil"
			(at 0 0 0)
			(effects
				(font
					(size 1.27 1.27)
				)
				(hide yes)
			)
		)
		(property "Sim.Enable" "0"
			(at 0 0 0)
			(effects
				(font
					(size 1.27 1.27)
				)
				(hide yes)
			)
		)
		(property "ki_keywords" "symbol arrow"
			(at 0 0 0)
			(effects
				(font
					(size 1.27 1.27)
				)
				(hide yes)
			)
		)
		(symbol "SYM_Arrow_XLarge_0_1"
			(polyline
				(pts
					(xy 2.54 0) (xy -5.08 0)
				)
				(stroke
					(width 0.508)
					(type default)
				)
				(fill
					(type none)
				)
			)
			(polyline
				(pts
					(xy 5.08 0) (xy 1.27 -1.016) (xy 1.27 1.016) (xy 5.08 0)
				)
				(stroke
					(width 0)
					(type default)
				)
				(fill
					(type outline)
				)
			)
		)
	)
	(symbol "SYM_ESD_Large"
		(exclude_from_sim no)
		(in_bom no)
		(on_board no)
		(property "Reference" "#SYM"
			(at 0 5.08 0)
			(effects
				(font
					(size 1.27 1.27)
				)
				(hide yes)
			)
		)
		(property "Value" "SYM_ESD_Large"
			(at 0 -6.35 0)
			(effects
				(font
					(size 1.27 1.27)
				)
				(hide yes)
			)
		)
		(property "Footprint" ""
			(at -0.127 -0.762 0)
			(effects
				(font
					(size 1.27 1.27)
				)
				(hide yes)
			)
		)
		(property "Datasheet" "~"
			(at -0.127 -0.762 0)
			(effects
				(font
					(size 1.27 1.27)
				)
				(hide yes)
			)
		)
		(property "Description" "ESD warning/\"Do not touch\" symbol, large"
			(at 0 0 0)
			(effects
				(font
					(size 1.27 1.27)
				)
				(hide yes)
			)
		)
		(property "Sim.Enable" "0"
			(at 0 0 0)
			(effects
				(font
					(size 1.27 1.27)
				)
				(hide yes)
			)
		)
		(property "ki_keywords" "symbol ESD"
			(at 0 0 0)
			(effects
				(font
					(size 1.27 1.27)
				)
				(hide yes)
			)
		)
		(symbol "SYM_ESD_Large_0_0"
			(polyline
				(pts
					(xy -2.667 -0.762) (xy 4.318 -3.302)
				)
				(stroke
					(width 0.508)
					(type default)
				)
				(fill
					(type none)
				)
			)
			(polyline
				(pts
					(xy 0.4826 -5.1308) (xy 5.3848 -5.1308) (xy 5.3848 -5.1054) (xy 5.334 -5.0546) (xy 5.2832 -4.953)
					(xy 5.207 -4.826) (xy 5.0038 -4.4704) (xy 4.8768 -4.2672) (xy 4.7498 -4.0386) (xy 4.1402 -3.0226)
					(xy 3.9878 -2.7432) (xy 3.5306 -1.9812) (xy 3.4036 -1.7526) (xy 3.2766 -1.5494) (xy 3.1496 -1.3716)
					(xy 3.0734 -1.1938) (xy 2.9972 -1.0668) (xy 2.921 -0.9652) (xy 2.8956 -0.889) (xy 2.8448 -0.8382)
					(xy 2.8194 -0.8636) (xy 2.7686 -0.889) (xy 2.5908 -1.0668) (xy 2.4892 -1.2192) (xy 2.4638 -1.3462)
					(xy 2.413 -1.4224) (xy 2.3622 -1.5748) (xy 2.286 -1.7018) (xy 1.9812 -2.0066) (xy 1.8542 -2.1082)
					(xy 1.7018 -2.2352) (xy 1.5494 -2.3368) (xy 1.397 -2.4638) (xy 1.2192 -2.5908) (xy 1.0668 -2.7178)
					(xy 0.9144 -2.8194) (xy 0.8128 -2.8956) (xy 0.7112 -2.9464) (xy 0.6096 -3.0226) (xy 0.3556 -3.2258)
					(xy 0.254 -3.3528) (xy 0.1524 -3.5052) (xy 0.0508 -3.683) (xy -0.0762 -3.8862) (xy -0.2286 -4.2672)
					(xy -0.381 -4.572) (xy -0.5334 -4.7244) (xy -0.6096 -4.7752) (xy -0.635 -4.8006) (xy -0.8382 -4.8006)
					(xy -0.9144 -4.7752) (xy -1.016 -4.6736) (xy -1.0668 -4.5212) (xy -1.1176 -4.3434) (xy -1.143 -4.1148)
					(xy -1.143 -3.4544) (xy -1.0922 -3.2512) (xy -1.0414 -3.0734) (xy -0.9398 -2.921) (xy -0.8382 -2.794)
					(xy -0.381 -2.3368) (xy -0.3048 -2.2352) (xy -0.2032 -1.9812) (xy -0.1778 -1.9304) (xy -0.1524 -1.8288)
					(xy -0.127 -1.7526) (xy -0.127 -1.7272) (xy -0.2032 -1.651) (xy -0.254 -1.5748) (xy -0.3556 -1.524)
					(xy -0.4318 -1.4478) (xy -0.508 -1.397) (xy -0.5588 -1.3462) (xy -0.6096 -1.3462) (xy -0.6604 -1.3716)
					(xy -0.7366 -1.4224) (xy -0.8382 -1.4732) (xy -0.9652 -1.5494) (xy -1.0668 -1.6002) (xy -1.1684 -1.6764)
					(xy -1.3208 -1.778) (xy -1.6002 -2.0574) (xy -1.778 -2.2606) (xy -1.7272 -2.3876) (xy -1.7018 -2.4384)
					(xy -1.7018 -2.5146) (xy -1.6764 -2.5908) (xy -1.6764 -2.8702) (xy -1.7018 -2.9972) (xy -1.7272 -3.0734)
					(xy -1.7272 -3.0988) (xy -1.7526 -3.1496) (xy -1.7018 -3.2512) (xy -1.651 -3.3274) (xy -1.651 -3.3528)
					(xy -1.524 -3.6068) (xy -1.4478 -3.8608) (xy -1.4224 -4.1402) (xy -1.4224 -4.3434) (xy -1.4478 -4.4196)
					(xy -1.4732 -4.4704) (xy -1.4986 -4.5466) (xy -1.5748 -4.6736) (xy -1.6764 -4.7498) (xy -1.778 -4.8006)
					(xy -1.8796 -4.8006) (xy -1.9558 -4.7752) (xy -2.0066 -4.7244) (xy -2.0574 -4.6228) (xy -2.1336 -4.4958)
					(xy -2.2098 -4.318) (xy -2.3114 -4.0894) (xy -2.413 -3.8354) (xy -2.5146 -3.5306) (xy -2.5146 -3.5052)
					(xy -2.5654 -3.3528) (xy -2.6416 -3.2004) (xy -2.7432 -2.9464) (xy -2.7686 -2.921) (xy -2.8448 -2.6924)
					(xy -2.8956 -2.4638) (xy -2.8956 -2.2606) (xy -2.8448 -2.032) (xy -2.7686 -1.8034) (xy -2.7178 -1.7018)
					(xy -2.6162 -1.5494) (xy -2.5146 -1.3716) (xy -2.3622 -1.1938) (xy -2.2098 -0.9906) (xy -2.1082 -0.889)
					(xy -1.9558 -0.635) (xy -1.8796 -0.5334) (xy -1.8542 -0.508) (xy -1.7272 -0.2794) (xy -1.6002 -0.1016)
					(xy -1.4478 0.0508) (xy -1.3208 0.1524) (xy -1.1684 0.2032) (xy -1.1176 0.2286) (xy -0.9906 0.254)
					(xy -0.8128 0.3048) (xy -0.5842 0.3302) (xy -0.3302 0.3556) (xy -0.0254 0.381) (xy 0.0254 0.381)
					(xy 0.2794 0.4064) (xy 0.508 0.4318) (xy 0.6858 0.4318) (xy 0.8382 0.4572) (xy 0.9652 0.4826) (xy 1.0668 0.508)
					(xy 1.1684 0.5588) (xy 1.2446 0.5842) (xy 1.3208 0.635) (xy 1.524 0.7874) (xy 1.7272 0.9906) (xy 1.7272 1.0414)
					(xy 1.7018 1.0922) (xy 1.651 1.1684) (xy 1.6002 1.27) (xy 1.4986 1.4224) (xy 1.4224 1.6002) (xy 1.1684 2.0066)
					(xy 1.0414 2.2352) (xy 0.6604 2.8702) (xy 0.508 3.0988) (xy 0.4064 3.302) (xy 0.3048 3.4544) (xy 0.2286 3.5814)
					(xy 0.1524 3.683) (xy 0.1016 3.7592) (xy 0.0508 3.8608) (xy 0.0254 3.8862) (xy -0.0508 3.8862)
					(xy -0.0508 3.8608) (xy -0.127 3.7846) (xy -0.1524 3.7338) (xy -0.2032 3.6576) (xy -0.254 3.556)
					(xy -0.4064 3.302) (xy -0.508 3.1496) (xy -0.6096 2.9718) (xy -0.7366 2.7686) (xy -1.0414 2.2606)
					(xy -1.2192 1.9558) (xy -1.4224 1.6256) (xy -1.8796 0.8636) (xy -2.1336 0.4064) (xy -2.4384 -0.0762)
					(xy -2.7432 -0.6096) (xy -2.921 -0.889) (xy -3.429 -1.7526) (xy -3.6576 -2.159) (xy -3.8862 -2.54)
					(xy -4.1148 -2.8956) (xy -4.318 -3.2512) (xy -4.5212 -3.5814) (xy -4.6736 -3.8862) (xy -4.8514 -4.1402)
					(xy -4.9784 -4.3942) (xy -5.1054 -4.5974) (xy -5.2324 -4.7752) (xy -5.3594 -5.0292) (xy -5.4102 -5.1054)
					(xy -5.4102 -5.1308) (xy -0.7112 -5.1308) (xy -0.0254 -5.1562) (xy 0.4826 -5.1308)
				)
				(stroke
					(width 0.127)
					(type default)
				)
				(fill
					(type background)
				)
			)
		)
		(symbol "SYM_ESD_Large_0_1"
			(polyline
				(pts
					(xy -5.334 -5.08) (xy 5.334 -5.08) (xy 0 3.81) (xy -5.334 -5.08)
				)
				(stroke
					(width 0.508)
					(type default)
				)
				(fill
					(type none)
				)
			)
		)
	)
	(symbol "SYM_ESD_Small"
		(exclude_from_sim no)
		(in_bom no)
		(on_board no)
		(property "Reference" "#SYM"
			(at 0 3.556 0)
			(effects
				(font
					(size 1.27 1.27)
				)
				(hide yes)
			)
		)
		(property "Value" "SYM_ESD_Small"
			(at 0 -3.175 0)
			(effects
				(font
					(size 1.27 1.27)
				)
				(hide yes)
			)
		)
		(property "Footprint" ""
			(at 0 0.254 0)
			(effects
				(font
					(size 1.27 1.27)
				)
				(hide yes)
			)
		)
		(property "Datasheet" "~"
			(at 0 0.254 0)
			(effects
				(font
					(size 1.27 1.27)
				)
				(hide yes)
			)
		)
		(property "Description" "ESD warning/\"Do not touch\" symbol, small"
			(at 0 0 0)
			(effects
				(font
					(size 1.27 1.27)
				)
				(hide yes)
			)
		)
		(property "Sim.Enable" "0"
			(at 0 0 0)
			(effects
				(font
					(size 1.27 1.27)
				)
				(hide yes)
			)
		)
		(property "ki_keywords" "symbol ESD"
			(at 0 0 0)
			(effects
				(font
					(size 1.27 1.27)
				)
				(hide yes)
			)
		)
		(symbol "SYM_ESD_Small_0_0"
			(polyline
				(pts
					(xy -1.27 0.381) (xy 2.159 -1.016)
				)
				(stroke
					(width 0.254)
					(type default)
				)
				(fill
					(type none)
				)
			)
			(polyline
				(pts
					(xy -2.667 -1.905) (xy 2.794 -1.905) (xy 0 2.54) (xy -2.667 -1.905)
				)
				(stroke
					(width 0.254)
					(type default)
				)
				(fill
					(type none)
				)
			)
			(polyline
				(pts
					(xy 2.7432 -1.905) (xy 2.7178 -1.8796) (xy 2.6162 -1.6764) (xy 2.5654 -1.6002) (xy 2.4892 -1.4986)
					(xy 2.4384 -1.3716) (xy 1.7526 -0.2286) (xy 1.7018 -0.127) (xy 1.6256 -0.0508) (xy 1.6002 0.0508)
					(xy 1.5494 0.1016) (xy 1.4986 0.2032) (xy 1.4732 0.2286) (xy 1.4732 0.2032) (xy 1.4478 0.2032)
					(xy 1.3208 0.0762) (xy 1.2954 0.0254) (xy 1.2954 -0.0254) (xy 1.27 -0.0762) (xy 1.2446 -0.1524)
					(xy 1.143 -0.254) (xy 1.0922 -0.3302) (xy 1.0414 -0.3556) (xy 0.9144 -0.4826) (xy 0.762 -0.5842)
					(xy 0.6604 -0.6604) (xy 0.508 -0.762) (xy 0.4572 -0.8128) (xy 0.3556 -0.8636) (xy 0.3048 -0.9144)
					(xy 0.2286 -0.9652) (xy 0.0762 -1.1938) (xy 0.0254 -1.2954) (xy -0.0254 -1.4224) (xy -0.0508 -1.4986)
					(xy -0.1016 -1.5748) (xy -0.127 -1.651) (xy -0.1778 -1.6764) (xy -0.2032 -1.7272) (xy -0.254 -1.7526)
					(xy -0.4064 -1.7526) (xy -0.4064 -1.7272) (xy -0.4572 -1.7018) (xy -0.4826 -1.6256) (xy -0.508 -1.524)
					(xy -0.508 -1.0922) (xy -0.4572 -0.889) (xy -0.4064 -0.8128) (xy -0.254 -0.6604) (xy -0.2032 -0.5842)
					(xy -0.127 -0.5334) (xy -0.1016 -0.4826) (xy -0.0762 -0.4064) (xy -0.0508 -0.3556) (xy -0.0254 -0.3302)
					(xy -0.0254 -0.2794) (xy 0 -0.2286) (xy -0.0762 -0.1524) (xy -0.127 -0.127) (xy -0.1524 -0.0762)
					(xy -0.2032 -0.0508) (xy -0.2286 -0.0254) (xy -0.254 -0.0254) (xy -0.3048 -0.0762) (xy -0.3556 -0.1016)
					(xy -0.4318 -0.127) (xy -0.4826 -0.1524) (xy -0.5588 -0.2286) (xy -0.6096 -0.254) (xy -0.8382 -0.4826)
					(xy -0.8128 -0.5588) (xy -0.7874 -0.5842) (xy -0.7874 -0.8636) (xy -0.8128 -0.889) (xy -0.8128 -0.9652)
					(xy -0.762 -1.016) (xy -0.762 -1.0414) (xy -0.6604 -1.2954) (xy -0.6604 -1.5748) (xy -0.6858 -1.6002)
					(xy -0.6858 -1.6256) (xy -0.7366 -1.7018) (xy -0.8382 -1.7526) (xy -0.9144 -1.7526) (xy -0.9398 -1.7272)
					(xy -0.9652 -1.6764) (xy -1.016 -1.6002) (xy -1.0414 -1.524) (xy -1.143 -1.27) (xy -1.2192 -1.0414)
					(xy -1.27 -0.9652) (xy -1.2954 -0.889) (xy -1.3208 -0.8382) (xy -1.3208 -0.8128) (xy -1.3716 -0.7112)
					(xy -1.397 -0.5842) (xy -1.397 -0.4826) (xy -1.3716 -0.381) (xy -1.3208 -0.254) (xy -1.2954 -0.2032)
					(xy -1.1938 -0.0508) (xy -1.0414 0.1524) (xy -0.9906 0.2032) (xy -0.9652 0.254) (xy -0.9144 0.3302)
					(xy -0.889 0.381) (xy -0.8636 0.381) (xy -0.8128 0.508) (xy -0.6096 0.7112) (xy -0.5334 0.7366)
					(xy -0.508 0.762) (xy -0.4318 0.762) (xy -0.3556 0.7874) (xy -0.2286 0.8128) (xy -0.1016 0.8128)
					(xy 0.0508 0.8382) (xy 0.2032 0.8382) (xy 0.3048 0.8636) (xy 0.4826 0.8636) (xy 0.5334 0.889) (xy 0.5842 0.889)
					(xy 0.6858 0.9398) (xy 0.7112 0.9652) (xy 0.762 0.9906) (xy 0.8128 1.0414) (xy 0.8636 1.0668) (xy 0.889 1.1176)
					(xy 0.9144 1.143) (xy 0.9144 1.1938) (xy 0.889 1.2192) (xy 0.8636 1.27) (xy 0.8128 1.3462) (xy 0.7112 1.5494)
					(xy 0.635 1.651) (xy 0.5842 1.7526) (xy 0.508 1.8796) (xy 0.4572 1.9558) (xy 0.381 2.0828) (xy 0.3048 2.1844)
					(xy 0.254 2.286) (xy 0.2032 2.3622) (xy 0.1778 2.4384) (xy 0.1016 2.5146) (xy 0.1016 2.54) (xy 0.0762 2.5654)
					(xy 0.0762 2.5908) (xy 0.0254 2.5908) (xy 0.0254 2.5654) (xy -0.0254 2.5146) (xy -0.1016 2.3622)
					(xy -0.254 2.1336) (xy -0.3048 2.032) (xy -0.4572 1.778) (xy -0.5588 1.6256) (xy -0.762 1.27) (xy -0.889 1.0668)
					(xy -1.016 0.8382) (xy -1.1684 0.6096) (xy -1.3208 0.3302) (xy -1.397 0.2032) (xy -1.524 -0.0254)
					(xy -1.778 -0.4318) (xy -1.8796 -0.635) (xy -2.0066 -0.8128) (xy -2.1082 -0.9906) (xy -2.2098 -1.143)
					(xy -2.286 -1.2954) (xy -2.4384 -1.5494) (xy -2.4892 -1.651) (xy -2.5654 -1.7526) (xy -2.5908 -1.8288)
					(xy -2.6162 -1.8796) (xy -2.6416 -1.905) (xy -2.6416 -1.9304) (xy 2.7432 -1.9304) (xy 2.7432 -1.905)
				)
				(stroke
					(width 0.127)
					(type default)
				)
				(fill
					(type background)
				)
			)
		)
	)
	(symbol "SYM_Earth_Protective_Large"
		(exclude_from_sim no)
		(in_bom no)
		(on_board no)
		(property "Reference" "#SYM"
			(at 0 5.08 0)
			(effects
				(font
					(size 1.27 1.27)
				)
				(hide yes)
			)
		)
		(property "Value" "SYM_Earth_Protective_Large"
			(at 0 -4.445 0)
			(effects
				(font
					(size 1.27 1.27)
				)
				(hide yes)
			)
		)
		(property "Footprint" ""
			(at 0 1.27 0)
			(effects
				(font
					(size 1.27 1.27)
				)
				(hide yes)
			)
		)
		(property "Datasheet" "~"
			(at 0 1.27 0)
			(effects
				(font
					(size 1.27 1.27)
				)
				(hide yes)
			)
		)
		(property "Description" "Protective earth symbol, large"
			(at 0 0 0)
			(effects
				(font
					(size 1.27 1.27)
				)
				(hide yes)
			)
		)
		(property "Sim.Enable" "0"
			(at 0 0 0)
			(effects
				(font
					(size 1.27 1.27)
				)
				(hide yes)
			)
		)
		(property "ki_keywords" "graphical symbol earth protective"
			(at 0 0 0)
			(effects
				(font
					(size 1.27 1.27)
				)
				(hide yes)
			)
		)
		(symbol "SYM_Earth_Protective_Large_0_1"
			(polyline
				(pts
					(xy -1.27 -0.381) (xy 1.27 -0.381)
				)
				(stroke
					(width 0.508)
					(type default)
				)
				(fill
					(type none)
				)
			)
			(polyline
				(pts
					(xy -0.254 -2.286) (xy 0.254 -2.286)
				)
				(stroke
					(width 0.508)
					(type default)
				)
				(fill
					(type none)
				)
			)
			(polyline
				(pts
					(xy 0 0.635) (xy 0 3.81)
				)
				(stroke
					(width 0.508)
					(type default)
				)
				(fill
					(type none)
				)
			)
			(polyline
				(pts
					(xy 1.905 0.635) (xy -1.905 0.635)
				)
				(stroke
					(width 0.508)
					(type default)
				)
				(fill
					(type none)
				)
			)
			(polyline
				(pts
					(xy 0.635 -1.397) (xy -0.635 -1.397) (xy 0.635 -1.397)
				)
				(stroke
					(width 0.508)
					(type default)
				)
				(fill
					(type none)
				)
			)
			(circle
				(center 0 0)
				(radius 3.81)
				(stroke
					(width 0.508)
					(type default)
				)
				(fill
					(type background)
				)
			)
		)
	)
	(symbol "SYM_Earth_Protective_Small"
		(exclude_from_sim no)
		(in_bom no)
		(on_board no)
		(property "Reference" "#SYM"
			(at 0 3.81 0)
			(effects
				(font
					(size 1.27 1.27)
				)
				(hide yes)
			)
		)
		(property "Value" "SYM_Earth_Protective_Small"
			(at 0 -3.81 0)
			(effects
				(font
					(size 1.27 1.27)
				)
				(hide yes)
			)
		)
		(property "Footprint" ""
			(at 0 1.27 0)
			(effects
				(font
					(size 1.27 1.27)
				)
				(hide yes)
			)
		)
		(property "Datasheet" "~"
			(at 0 1.27 0)
			(effects
				(font
					(size 1.27 1.27)
				)
				(hide yes)
			)
		)
		(property "Description" "Protective earth symbol, small"
			(at 0 0 0)
			(effects
				(font
					(size 1.27 1.27)
				)
				(hide yes)
			)
		)
		(property "Sim.Enable" "0"
			(at 0 0 0)
			(effects
				(font
					(size 1.27 1.27)
				)
				(hide yes)
			)
		)
		(property "ki_keywords" "graphical symbol earth protective"
			(at 0 0 0)
			(effects
				(font
					(size 1.27 1.27)
				)
				(hide yes)
			)
		)
		(symbol "SYM_Earth_Protective_Small_0_1"
			(polyline
				(pts
					(xy -0.635 -0.635) (xy 0.635 -0.635)
				)
				(stroke
					(width 0.254)
					(type default)
				)
				(fill
					(type none)
				)
			)
			(polyline
				(pts
					(xy -0.127 -1.27) (xy 0.127 -1.27)
				)
				(stroke
					(width 0.254)
					(type default)
				)
				(fill
					(type none)
				)
			)
			(polyline
				(pts
					(xy 0 0) (xy 0 2.54)
				)
				(stroke
					(width 0.254)
					(type default)
				)
				(fill
					(type none)
				)
			)
			(polyline
				(pts
					(xy 1.27 0) (xy -1.27 0)
				)
				(stroke
					(width 0.254)
					(type default)
				)
				(fill
					(type none)
				)
			)
			(circle
				(center 0 0)
				(radius 2.54)
				(stroke
					(width 0.254)
					(type default)
				)
				(fill
					(type background)
				)
			)
		)
	)
	(symbol "SYM_EasterEgg_42x60mm"
		(exclude_from_sim no)
		(in_bom no)
		(on_board yes)
		(property "Reference" "SYM"
			(at 0 0 0)
			(effects
				(font
					(size 1.27 1.27)
				)
				(hide yes)
			)
		)
		(property "Value" "SYM_EasterEgg_42x60mm"
			(at 0 0 0)
			(effects
				(font
					(size 1.27 1.27)
				)
				(hide yes)
			)
		)
		(property "Footprint" "Symbol:EasterEgg_EWG1308-2013_ClassA"
			(at 0 -3.81 0)
			(effects
				(font
					(size 1.27 1.27)
				)
				(hide yes)
			)
		)
		(property "Datasheet" "https://eur-lex.europa.eu/LexUriServ/LexUriServ.do?uri=OJ:L:2013:347:0671:0854:de:PDF"
			(at 0 -6.35 0)
			(effects
				(font
					(size 1.27 1.27)
				)
				(hide yes)
			)
		)
		(property "Description" "EasterEgg, ClassA, Medium Size"
			(at 0 0 0)
			(effects
				(font
					(size 1.27 1.27)
				)
				(hide yes)
			)
		)
		(property "Sim.Enable" "0"
			(at 0 -2.54 0)
			(effects
				(font
					(size 1.27 1.27)
				)
				(hide yes)
			)
		)
		(property "ki_keywords" "egg easter oval"
			(at 0 0 0)
			(effects
				(font
					(size 1.27 1.27)
				)
				(hide yes)
			)
		)
		(property "ki_fp_filters" "EasterEgg*"
			(at 0 0 0)
			(effects
				(font
					(size 1.27 1.27)
				)
				(hide yes)
			)
		)
		(symbol "SYM_EasterEgg_42x60mm_0_0"
			(polyline
				(pts
					(xy -21.336 31.75) (xy 21.082 31.75)
				)
				(stroke
					(width 0.635)
					(type default)
				)
				(fill
					(type none)
				)
			)
			(polyline
				(pts
					(xy -21.082 17.272) (xy 20.828 17.272)
				)
				(stroke
					(width 0.635)
					(type default)
				)
				(fill
					(type none)
				)
			)
			(polyline
				(pts
					(xy -20.32 31.75) (xy -17.018 41.91)
				)
				(stroke
					(width 0.254)
					(type default)
				)
				(fill
					(type none)
				)
			)
			(polyline
				(pts
					(xy -18.542 41.91) (xy 18.542 41.91)
				)
				(stroke
					(width 0.635)
					(type default)
				)
				(fill
					(type none)
				)
			)
			(polyline
				(pts
					(xy -17.78 31.75) (xy -14.478 41.91)
				)
				(stroke
					(width 0.254)
					(type default)
				)
				(fill
					(type none)
				)
			)
			(polyline
				(pts
					(xy -15.24 31.75) (xy -11.938 41.91)
				)
				(stroke
					(width 0.254)
					(type default)
				)
				(fill
					(type none)
				)
			)
			(polyline
				(pts
					(xy -12.7 31.75) (xy -9.398 41.91)
				)
				(stroke
					(width 0.254)
					(type default)
				)
				(fill
					(type none)
				)
			)
			(polyline
				(pts
					(xy -10.16 31.75) (xy -6.858 41.91)
				)
				(stroke
					(width 0.254)
					(type default)
				)
				(fill
					(type none)
				)
			)
			(polyline
				(pts
					(xy -9.144 57.404) (xy 9.144 57.404)
				)
				(stroke
					(width 0.635)
					(type default)
				)
				(fill
					(type none)
				)
			)
			(polyline
				(pts
					(xy -7.62 31.75) (xy -4.318 41.91)
				)
				(stroke
					(width 0.254)
					(type default)
				)
				(fill
					(type none)
				)
			)
			(polyline
				(pts
					(xy -5.08 31.75) (xy -1.778 41.91)
				)
				(stroke
					(width 0.254)
					(type default)
				)
				(fill
					(type none)
				)
			)
			(polyline
				(pts
					(xy -2.54 31.75) (xy 0.762 41.91)
				)
				(stroke
					(width 0.254)
					(type default)
				)
				(fill
					(type none)
				)
			)
			(polyline
				(pts
					(xy 0 31.75) (xy 3.302 41.91)
				)
				(stroke
					(width 0.254)
					(type default)
				)
				(fill
					(type none)
				)
			)
			(polyline
				(pts
					(xy 2.54 31.75) (xy 5.842 41.91)
				)
				(stroke
					(width 0.254)
					(type default)
				)
				(fill
					(type none)
				)
			)
			(polyline
				(pts
					(xy 5.08 31.75) (xy 8.382 41.91)
				)
				(stroke
					(width 0.254)
					(type default)
				)
				(fill
					(type none)
				)
			)
			(polyline
				(pts
					(xy 7.62 31.75) (xy 10.922 41.91)
				)
				(stroke
					(width 0.254)
					(type default)
				)
				(fill
					(type none)
				)
			)
			(polyline
				(pts
					(xy 10.16 31.75) (xy 13.462 41.91)
				)
				(stroke
					(width 0.254)
					(type default)
				)
				(fill
					(type none)
				)
			)
			(polyline
				(pts
					(xy 12.7 31.75) (xy 16.002 41.91)
				)
				(stroke
					(width 0.254)
					(type default)
				)
				(fill
					(type none)
				)
			)
			(polyline
				(pts
					(xy 15.24 31.75) (xy 18.542 41.91)
				)
				(stroke
					(width 0.254)
					(type default)
				)
				(fill
					(type none)
				)
			)
			(polyline
				(pts
					(xy 17.78 31.75) (xy 19.685 38.1)
				)
				(stroke
					(width 0.254)
					(type default)
				)
				(fill
					(type none)
				)
			)
			(polyline
				(pts
					(xy 20.32 31.75) (xy 20.955 33.655)
				)
				(stroke
					(width 0.254)
					(type default)
				)
				(fill
					(type none)
				)
			)
			(polyline
				(pts
					(xy 3.81 0) (xy 6.7876 0.8362) (xy 9.6194 2.1032) (xy 12.2601 3.7704) (xy 14.664 5.8069) (xy 16.7858 8.1821)
					(xy 18.5799 10.8653) (xy 20.0009 13.8258) (xy 21.0033 17.0328) (xy 21.1579 17.9022) (xy 21.3178 19.4063)
					(xy 21.4338 21.2395) (xy 21.5049 23.284) (xy 21.5298 25.422) (xy 21.5076 27.5357) (xy 21.4371 29.5073)
					(xy 21.3173 31.219) (xy 21.1471 32.5531) (xy 21.0293 33.1976) (xy 19.8134 38.3331) (xy 18.153 43.1691)
					(xy 16.0395 47.7248) (xy 13.4638 52.0197) (xy 10.4171 56.0733) (xy 9.6566 56.9666) (xy 8.2477 58.489)
					(xy 6.9641 59.662) (xy 5.7116 60.5673) (xy 4.3959 61.2863) (xy 3.6465 61.6273) (xy 2.8869 61.9035)
					(xy 2.1275 62.0584) (xy 1.1882 62.1264) (xy -0.1111 62.1414) (xy -1.2192 62.1318) (xy -2.2063 62.0754)
					(xy -2.9835 61.9377) (xy -3.7313 61.6843) (xy -4.63 61.2808) (xy -5.679 60.7202) (xy -6.9361 59.8507)
					(xy -8.2194 58.7217) (xy -9.6079 57.2622) (xy -11.1805 55.4015) (xy -14.1139 51.3837) (xy -16.6002 47.0991)
					(xy -18.6319 42.5472) (xy -20.2187 37.706) (xy -21.3706 32.5531) (xy -21.5144 31.4761) (xy -21.6403 29.8364)
					(xy -21.7184 27.9175) (xy -21.7496 25.8363) (xy -21.7349 23.7097) (xy -21.6753 21.6545) (xy -21.5719 19.7876)
					(xy -21.4256 18.2259) (xy -21.2374 17.0862) (xy -20.7288 15.2493) (xy -19.4413 12.0552) (xy -17.7312 9.1385)
					(xy -15.6363 6.5369) (xy -13.1945 4.2881) (xy -10.4433 2.4299) (xy -7.4207 0.9998) (xy -4.1643 0.0357)
					(xy -2.4005 -0.2572) (xy 0.7322 -0.3747) (xy 3.81 0)
				)
				(stroke
					(width 0.635)
					(type default)
				)
				(fill
					(type none)
				)
			)
		)
	)
	(symbol "SYM_Flash_Large"
		(exclude_from_sim no)
		(in_bom no)
		(on_board no)
		(property "Reference" "#SYM"
			(at -3.81 0 90)
			(effects
				(font
					(size 1.27 1.27)
				)
				(hide yes)
			)
		)
		(property "Value" "SYM_Flash_Large"
			(at 3.302 0 90)
			(effects
				(font
					(size 1.27 1.27)
				)
				(hide yes)
			)
		)
		(property "Footprint" ""
			(at -0.254 -2.286 0)
			(effects
				(font
					(size 1.27 1.27)
				)
				(hide yes)
			)
		)
		(property "Datasheet" "~"
			(at 10.16 -2.54 0)
			(effects
				(font
					(size 1.27 1.27)
				)
				(hide yes)
			)
		)
		(property "Description" "Flash symbol, large"
			(at 0 0 0)
			(effects
				(font
					(size 1.27 1.27)
				)
				(hide yes)
			)
		)
		(property "Sim.Enable" "0"
			(at 0 0 0)
			(effects
				(font
					(size 1.27 1.27)
				)
				(hide yes)
			)
		)
		(property "ki_keywords" "graphic symbol flash VAC 220VAC 110VAC power"
			(at 0 0 0)
			(effects
				(font
					(size 1.27 1.27)
				)
				(hide yes)
			)
		)
		(symbol "SYM_Flash_Large_0_1"
			(polyline
				(pts
					(xy 0.127 -3.556) (xy -1.524 -2.921) (xy -1.778 -5.588) (xy 0.127 -3.556)
				)
				(stroke
					(width 0.2032)
					(type default)
				)
				(fill
					(type outline)
				)
			)
			(polyline
				(pts
					(xy -0.508 4.445) (xy 1.397 4.445) (xy 0 1.016) (xy 2.286 1.905) (xy -0.508 -3.937) (xy -1.397 -3.556)
					(xy 0.254 -0.254) (xy -2.159 -1.143) (xy -0.508 4.445)
				)
				(stroke
					(width 0.2032)
					(type default)
				)
				(fill
					(type outline)
				)
			)
		)
	)
	(symbol "SYM_Flash_Small"
		(exclude_from_sim no)
		(in_bom no)
		(on_board no)
		(property "Reference" "#SYM"
			(at -2.286 0 90)
			(effects
				(font
					(size 1.27 1.27)
				)
				(hide yes)
			)
		)
		(property "Value" "SYM_Flash_Small"
			(at 2.286 0 90)
			(effects
				(font
					(size 1.27 1.27)
				)
				(hide yes)
			)
		)
		(property "Footprint" ""
			(at 0 -0.635 0)
			(effects
				(font
					(size 1.27 1.27)
				)
				(hide yes)
			)
		)
		(property "Datasheet" "~"
			(at 10.16 -2.54 0)
			(effects
				(font
					(size 1.27 1.27)
				)
				(hide yes)
			)
		)
		(property "Description" "Flash symbol, small"
			(at 0 0 0)
			(effects
				(font
					(size 1.27 1.27)
				)
				(hide yes)
			)
		)
		(property "Sim.Enable" "0"
			(at 0 0 0)
			(effects
				(font
					(size 1.27 1.27)
				)
				(hide yes)
			)
		)
		(property "ki_keywords" "graphic symbol flash VAC 220VAC 110VAC power"
			(at 0 0 0)
			(effects
				(font
					(size 1.27 1.27)
				)
				(hide yes)
			)
		)
		(symbol "SYM_Flash_Small_0_1"
			(polyline
				(pts
					(xy 0.508 -1.016) (xy -1.016 -0.762) (xy -1.016 -3.048) (xy 0.508 -1.016)
				)
				(stroke
					(width 0.2032)
					(type default)
				)
				(fill
					(type outline)
				)
			)
			(polyline
				(pts
					(xy -0.254 3.81) (xy 0.508 3.81) (xy -0.254 1.524) (xy 1.27 2.286) (xy 0 -1.016) (xy -0.508 -0.762)
					(xy 0.254 1.016) (xy -1.27 0.254) (xy -0.254 3.81)
				)
				(stroke
					(width 0.2032)
					(type default)
				)
				(fill
					(type outline)
				)
			)
		)
	)
	(symbol "SYM_Flash_XLarge"
		(exclude_from_sim no)
		(in_bom no)
		(on_board no)
		(property "Reference" "#SYM"
			(at -3.81 0 90)
			(effects
				(font
					(size 1.27 1.27)
				)
				(hide yes)
			)
		)
		(property "Value" "SYM_Flash_XLarge"
			(at 3.81 0 90)
			(effects
				(font
					(size 1.27 1.27)
				)
				(hide yes)
			)
		)
		(property "Footprint" ""
			(at 0 -0.635 0)
			(effects
				(font
					(size 1.27 1.27)
				)
				(hide yes)
			)
		)
		(property "Datasheet" "~"
			(at 10.16 -2.54 0)
			(effects
				(font
					(size 1.27 1.27)
				)
				(hide yes)
			)
		)
		(property "Description" "Flash symbol, extra large"
			(at 0 0 0)
			(effects
				(font
					(size 1.27 1.27)
				)
				(hide yes)
			)
		)
		(property "Sim.Enable" "0"
			(at 0 0 0)
			(effects
				(font
					(size 1.27 1.27)
				)
				(hide yes)
			)
		)
		(property "ki_keywords" "graphic symbol flash VAC 220VAC 110VAC power"
			(at 0 0 0)
			(effects
				(font
					(size 1.27 1.27)
				)
				(hide yes)
			)
		)
		(symbol "SYM_Flash_XLarge_0_1"
			(polyline
				(pts
					(xy -0.127 -3.683) (xy -2.667 -3.048) (xy -2.667 -6.223) (xy -0.127 -3.683)
				)
				(stroke
					(width 0.2032)
					(type default)
				)
				(fill
					(type outline)
				)
			)
			(polyline
				(pts
					(xy 0 8.255) (xy 1.27 8.255) (xy 2.54 8.255) (xy 0 1.905) (xy 2.54 3.175) (xy -1.27 -4.445) (xy -2.54 -4.445)
					(xy 0 0.635) (xy -2.54 -0.635) (xy 0 8.255)
				)
				(stroke
					(width 0.2032)
					(type default)
				)
				(fill
					(type outline)
				)
			)
		)
	)
	(symbol "SYM_Hot_Large"
		(exclude_from_sim no)
		(in_bom yes)
		(on_board no)
		(property "Reference" "#SYM"
			(at 0 5.08 0)
			(effects
				(font
					(size 1.27 1.27)
				)
				(hide yes)
			)
		)
		(property "Value" "SYM_Hot_Large"
			(at 0 -6.35 0)
			(effects
				(font
					(size 1.27 1.27)
				)
				(hide yes)
			)
		)
		(property "Footprint" ""
			(at 0 -5.08 0)
			(effects
				(font
					(size 1.27 1.27)
				)
				(hide yes)
			)
		)
		(property "Datasheet" "~"
			(at 0.762 -5.08 0)
			(effects
				(font
					(size 1.27 1.27)
				)
				(hide yes)
			)
		)
		(property "Description" "Hot surface warning symbol, large"
			(at 0 0 0)
			(effects
				(font
					(size 1.27 1.27)
				)
				(hide yes)
			)
		)
		(property "Sim.Enable" "0"
			(at 0 0 0)
			(effects
				(font
					(size 1.27 1.27)
				)
				(hide yes)
			)
		)
		(property "ki_keywords" "symbol logo hot surface warning heat"
			(at 0 0 0)
			(effects
				(font
					(size 1.27 1.27)
				)
				(hide yes)
			)
		)
		(symbol "SYM_Hot_Large_0_1"
			(arc
				(start -1.27 -3.683)
				(mid -0.9449 -2.728)
				(end -1.27 -1.778)
				(stroke
					(width 0.508)
					(type default)
				)
				(fill
					(type none)
				)
			)
			(arc
				(start -1.27 0.127)
				(mid -1.5951 -0.828)
				(end -1.27 -1.778)
				(stroke
					(width 0.508)
					(type default)
				)
				(fill
					(type none)
				)
			)
			(arc
				(start 0 -3.683)
				(mid 0.3251 -2.728)
				(end 0 -1.778)
				(stroke
					(width 0.508)
					(type default)
				)
				(fill
					(type none)
				)
			)
			(polyline
				(pts
					(xy -2.413 -4.318) (xy 2.667 -4.318)
				)
				(stroke
					(width 0.508)
					(type default)
				)
				(fill
					(type none)
				)
			)
			(polyline
				(pts
					(xy -5.08 -5.08) (xy 5.08 -5.08) (xy 0 3.81) (xy -5.08 -5.08)
				)
				(stroke
					(width 0.508)
					(type default)
				)
				(fill
					(type background)
				)
			)
			(arc
				(start 0 0.127)
				(mid -0.3251 -0.828)
				(end 0 -1.778)
				(stroke
					(width 0.508)
					(type default)
				)
				(fill
					(type none)
				)
			)
			(arc
				(start 1.27 -3.683)
				(mid 1.5951 -2.728)
				(end 1.27 -1.778)
				(stroke
					(width 0.508)
					(type default)
				)
				(fill
					(type none)
				)
			)
			(arc
				(start 1.27 0.127)
				(mid 0.9449 -0.828)
				(end 1.27 -1.778)
				(stroke
					(width 0.508)
					(type default)
				)
				(fill
					(type none)
				)
			)
		)
	)
	(symbol "SYM_Hot_Small"
		(exclude_from_sim no)
		(in_bom no)
		(on_board no)
		(property "Reference" "#SYM"
			(at 0 3.556 0)
			(effects
				(font
					(size 1.27 1.27)
				)
				(hide yes)
			)
		)
		(property "Value" "SYM_Hot_Small"
			(at 0 -3.175 0)
			(effects
				(font
					(size 1.27 1.27)
				)
				(hide yes)
			)
		)
		(property "Footprint" ""
			(at 0 -4.445 0)
			(effects
				(font
					(size 1.27 1.27)
				)
				(hide yes)
			)
		)
		(property "Datasheet" "~"
			(at 0.762 -5.08 0)
			(effects
				(font
					(size 1.27 1.27)
				)
				(hide yes)
			)
		)
		(property "Description" "Hot surface warning symbol, small"
			(at 0 0 0)
			(effects
				(font
					(size 1.27 1.27)
				)
				(hide yes)
			)
		)
		(property "Sim.Enable" "0"
			(at 0 0 0)
			(effects
				(font
					(size 1.27 1.27)
				)
				(hide yes)
			)
		)
		(property "ki_keywords" "symbol logo hot surface warning heat"
			(at 0 0 0)
			(effects
				(font
					(size 1.27 1.27)
				)
				(hide yes)
			)
		)
		(symbol "SYM_Hot_Small_0_1"
			(arc
				(start -0.762 -1.016)
				(mid -0.635 -0.635)
				(end -0.762 -0.254)
				(stroke
					(width 0.254)
					(type default)
				)
				(fill
					(type none)
				)
			)
			(arc
				(start -0.762 0.508)
				(mid -0.889 0.127)
				(end -0.762 -0.254)
				(stroke
					(width 0.254)
					(type default)
				)
				(fill
					(type none)
				)
			)
			(arc
				(start 0 -1.016)
				(mid 0.127 -0.635)
				(end 0 -0.254)
				(stroke
					(width 0.254)
					(type default)
				)
				(fill
					(type none)
				)
			)
			(polyline
				(pts
					(xy 1.27 -1.397) (xy -1.27 -1.397)
				)
				(stroke
					(width 0.254)
					(type default)
				)
				(fill
					(type none)
				)
			)
			(polyline
				(pts
					(xy -2.54 -1.905) (xy 2.54 -1.905) (xy 0 2.54) (xy -2.54 -1.905)
				)
				(stroke
					(width 0.254)
					(type default)
				)
				(fill
					(type background)
				)
			)
			(arc
				(start 0 0.508)
				(mid -0.127 0.127)
				(end 0 -0.254)
				(stroke
					(width 0.254)
					(type default)
				)
				(fill
					(type none)
				)
			)
			(arc
				(start 0.762 -1.016)
				(mid 0.889 -0.635)
				(end 0.762 -0.254)
				(stroke
					(width 0.254)
					(type default)
				)
				(fill
					(type none)
				)
			)
			(arc
				(start 0.762 0.508)
				(mid 0.635 0.127)
				(end 0.762 -0.254)
				(stroke
					(width 0.254)
					(type default)
				)
				(fill
					(type none)
				)
			)
		)
	)
	(symbol "SYM_LASER_Large"
		(exclude_from_sim no)
		(in_bom no)
		(on_board no)
		(property "Reference" "#SYM"
			(at 0 5.08 0)
			(effects
				(font
					(size 1.27 1.27)
				)
				(hide yes)
			)
		)
		(property "Value" "SYM_LASER_Large"
			(at 0 -6.731 0)
			(effects
				(font
					(size 1.27 1.27)
				)
				(hide yes)
			)
		)
		(property "Footprint" ""
			(at -0.254 -4.445 0)
			(effects
				(font
					(size 1.27 1.27)
				)
				(hide yes)
			)
		)
		(property "Datasheet" "~"
			(at 0.762 -5.08 0)
			(effects
				(font
					(size 1.27 1.27)
				)
				(hide yes)
			)
		)
		(property "Description" "Laser radiation warning symbol, large"
			(at 0 0 0)
			(effects
				(font
					(size 1.27 1.27)
				)
				(hide yes)
			)
		)
		(property "Sim.Enable" "0"
			(at 0 0 0)
			(effects
				(font
					(size 1.27 1.27)
				)
				(hide yes)
			)
		)
		(property "ki_keywords" "symbol logo laser warning"
			(at 0 0 0)
			(effects
				(font
					(size 1.27 1.27)
				)
				(hide yes)
			)
		)
		(symbol "SYM_LASER_Large_0_1"
			(polyline
				(pts
					(xy -1.905 -2.413) (xy 3.556 -2.413)
				)
				(stroke
					(width 0.254)
					(type default)
				)
				(fill
					(type none)
				)
			)
			(polyline
				(pts
					(xy -1.27 -3.683) (xy 1.27 -1.143)
				)
				(stroke
					(width 0.254)
					(type default)
				)
				(fill
					(type none)
				)
			)
			(polyline
				(pts
					(xy -1.143 -2.921) (xy 1.143 -1.905)
				)
				(stroke
					(width 0)
					(type default)
				)
				(fill
					(type none)
				)
			)
			(polyline
				(pts
					(xy -1.143 -2.032) (xy 1.143 -2.794)
				)
				(stroke
					(width 0)
					(type default)
				)
				(fill
					(type none)
				)
			)
			(polyline
				(pts
					(xy -0.508 -1.27) (xy 0.508 -3.556)
				)
				(stroke
					(width 0)
					(type default)
				)
				(fill
					(type none)
				)
			)
			(polyline
				(pts
					(xy 0 -4.191) (xy 0 -0.508)
				)
				(stroke
					(width 0.254)
					(type default)
				)
				(fill
					(type none)
				)
			)
			(polyline
				(pts
					(xy 0.508 -1.27) (xy -0.508 -3.556)
				)
				(stroke
					(width 0)
					(type default)
				)
				(fill
					(type none)
				)
			)
			(polyline
				(pts
					(xy 1.397 -3.683) (xy -1.397 -1.143)
				)
				(stroke
					(width 0.254)
					(type default)
				)
				(fill
					(type none)
				)
			)
			(polyline
				(pts
					(xy -5.08 -5.08) (xy 5.08 -5.08) (xy 0 3.81) (xy -5.08 -5.08)
				)
				(stroke
					(width 0.508)
					(type default)
				)
				(fill
					(type background)
				)
			)
		)
	)
	(symbol "SYM_LASER_Small"
		(exclude_from_sim no)
		(in_bom no)
		(on_board no)
		(property "Reference" "#SYM"
			(at 0 3.556 0)
			(effects
				(font
					(size 1.27 1.27)
				)
				(hide yes)
			)
		)
		(property "Value" "SYM_LASER_Small"
			(at 0 -3.175 0)
			(effects
				(font
					(size 1.27 1.27)
				)
				(hide yes)
			)
		)
		(property "Footprint" ""
			(at 0 -4.445 0)
			(effects
				(font
					(size 1.27 1.27)
				)
				(hide yes)
			)
		)
		(property "Datasheet" "~"
			(at 0.762 -5.08 0)
			(effects
				(font
					(size 1.27 1.27)
				)
				(hide yes)
			)
		)
		(property "Description" "Laser radiation warning symbol, small"
			(at 0 0 0)
			(effects
				(font
					(size 1.27 1.27)
				)
				(hide yes)
			)
		)
		(property "Sim.Enable" "0"
			(at 0 0 0)
			(effects
				(font
					(size 1.27 1.27)
				)
				(hide yes)
			)
		)
		(property "ki_keywords" "symbol logo laser warning"
			(at 0 0 0)
			(effects
				(font
					(size 1.27 1.27)
				)
				(hide yes)
			)
		)
		(symbol "SYM_LASER_Small_0_1"
			(polyline
				(pts
					(xy -1.143 -0.381) (xy 1.651 -0.381)
				)
				(stroke
					(width 0.254)
					(type default)
				)
				(fill
					(type none)
				)
			)
			(polyline
				(pts
					(xy -0.889 -0.762) (xy 0.889 0)
				)
				(stroke
					(width 0)
					(type default)
				)
				(fill
					(type none)
				)
			)
			(polyline
				(pts
					(xy -0.889 0) (xy 0.889 -0.762)
				)
				(stroke
					(width 0)
					(type default)
				)
				(fill
					(type none)
				)
			)
			(polyline
				(pts
					(xy -0.762 -1.143) (xy 0.762 0.381)
				)
				(stroke
					(width 0.254)
					(type default)
				)
				(fill
					(type none)
				)
			)
			(polyline
				(pts
					(xy -0.381 0.508) (xy 0.381 -1.27)
				)
				(stroke
					(width 0)
					(type default)
				)
				(fill
					(type none)
				)
			)
			(polyline
				(pts
					(xy 0 -1.397) (xy 0 0.635)
				)
				(stroke
					(width 0.254)
					(type default)
				)
				(fill
					(type none)
				)
			)
			(polyline
				(pts
					(xy 0.381 0.508) (xy -0.381 -1.27)
				)
				(stroke
					(width 0)
					(type default)
				)
				(fill
					(type none)
				)
			)
			(polyline
				(pts
					(xy 0.762 -1.143) (xy -0.762 0.381)
				)
				(stroke
					(width 0.254)
					(type default)
				)
				(fill
					(type none)
				)
			)
			(polyline
				(pts
					(xy -2.54 -1.905) (xy 2.54 -1.905) (xy 0 2.54) (xy -2.54 -1.905)
				)
				(stroke
					(width 0.254)
					(type default)
				)
				(fill
					(type background)
				)
			)
		)
	)
	(symbol "SYM_Magnet_Large"
		(exclude_from_sim no)
		(in_bom no)
		(on_board no)
		(property "Reference" "#SYM"
			(at 0 5.08 0)
			(effects
				(font
					(size 1.27 1.27)
				)
				(hide yes)
			)
		)
		(property "Value" "SYM_Magnet_Large"
			(at 0 -6.35 0)
			(effects
				(font
					(size 1.27 1.27)
				)
				(hide yes)
			)
		)
		(property "Footprint" ""
			(at 0 -5.08 0)
			(effects
				(font
					(size 1.27 1.27)
				)
				(hide yes)
			)
		)
		(property "Datasheet" "~"
			(at 0.762 -5.08 0)
			(effects
				(font
					(size 1.27 1.27)
				)
				(hide yes)
			)
		)
		(property "Description" "Magnetic field warning symbol, large"
			(at 0 0 0)
			(effects
				(font
					(size 1.27 1.27)
				)
				(hide yes)
			)
		)
		(property "Sim.Enable" "0"
			(at 0 0 0)
			(effects
				(font
					(size 1.27 1.27)
				)
				(hide yes)
			)
		)
		(property "ki_keywords" "symbol logo magnetic field warning"
			(at 0 0 0)
			(effects
				(font
					(size 1.27 1.27)
				)
				(hide yes)
			)
		)
		(symbol "SYM_Magnet_Large_0_1"
			(rectangle
				(start -1.8288 -1.27)
				(end -0.7112 -2.54)
				(stroke
					(width 0)
					(type default)
				)
				(fill
					(type outline)
				)
			)
			(rectangle
				(start -1.8288 -0.5334)
				(end -0.7112 -1.8034)
				(stroke
					(width 0)
					(type default)
				)
				(fill
					(type background)
				)
			)
			(arc
				(start -1.27 -2.54)
				(mid 0 -3.8045)
				(end 1.27 -2.54)
				(stroke
					(width 1.27)
					(type default)
				)
				(fill
					(type none)
				)
			)
			(polyline
				(pts
					(xy -5.08 -5.08) (xy 5.08 -5.08) (xy 0 3.81) (xy -5.08 -5.08)
				)
				(stroke
					(width 0.508)
					(type default)
				)
				(fill
					(type background)
				)
			)
			(rectangle
				(start 0.7112 -1.27)
				(end 1.8288 -2.54)
				(stroke
					(width 0)
					(type default)
				)
				(fill
					(type outline)
				)
			)
			(rectangle
				(start 0.7112 -0.5334)
				(end 1.8288 -1.8034)
				(stroke
					(width 0)
					(type default)
				)
				(fill
					(type background)
				)
			)
		)
	)
	(symbol "SYM_Magnet_Small"
		(exclude_from_sim no)
		(in_bom no)
		(on_board no)
		(property "Reference" "#SYM"
			(at 0 3.556 0)
			(effects
				(font
					(size 1.27 1.27)
				)
				(hide yes)
			)
		)
		(property "Value" "SYM_Magnet_Small"
			(at 0 -3.175 0)
			(effects
				(font
					(size 1.27 1.27)
				)
				(hide yes)
			)
		)
		(property "Footprint" ""
			(at 0 -4.445 0)
			(effects
				(font
					(size 1.27 1.27)
				)
				(hide yes)
			)
		)
		(property "Datasheet" "~"
			(at 0.762 -5.08 0)
			(effects
				(font
					(size 1.27 1.27)
				)
				(hide yes)
			)
		)
		(property "Description" "Magnetic field warning symbol, small"
			(at 0 0 0)
			(effects
				(font
					(size 1.27 1.27)
				)
				(hide yes)
			)
		)
		(property "Sim.Enable" "0"
			(at 0 0 0)
			(effects
				(font
					(size 1.27 1.27)
				)
				(hide yes)
			)
		)
		(property "ki_keywords" "symbol logo magnetic field warning"
			(at 0 0 0)
			(effects
				(font
					(size 1.27 1.27)
				)
				(hide yes)
			)
		)
		(symbol "SYM_Magnet_Small_0_1"
			(rectangle
				(start -0.9398 -0.7112)
				(end -0.3302 -0.0762)
				(stroke
					(width 0)
					(type default)
				)
				(fill
					(type outline)
				)
			)
			(rectangle
				(start -0.9398 -0.2286)
				(end -0.3302 0.4064)
				(stroke
					(width 0)
					(type default)
				)
				(fill
					(type background)
				)
			)
			(arc
				(start -0.635 -0.6858)
				(mid 0 -1.3181)
				(end 0.635 -0.6858)
				(stroke
					(width 0.762)
					(type default)
				)
				(fill
					(type none)
				)
			)
			(polyline
				(pts
					(xy -2.54 -1.905) (xy 2.54 -1.905) (xy 0 2.54) (xy -2.54 -1.905)
				)
				(stroke
					(width 0.254)
					(type default)
				)
				(fill
					(type background)
				)
			)
			(rectangle
				(start 0.3302 -0.7112)
				(end 0.9398 -0.0762)
				(stroke
					(width 0)
					(type default)
				)
				(fill
					(type outline)
				)
			)
			(rectangle
				(start 0.3302 -0.2286)
				(end 0.9398 0.4064)
				(stroke
					(width 0)
					(type default)
				)
				(fill
					(type background)
				)
			)
		)
	)
	(symbol "SYM_Radio_Waves_Large"
		(exclude_from_sim no)
		(in_bom no)
		(on_board no)
		(property "Reference" "#SYM"
			(at 0 5.08 0)
			(effects
				(font
					(size 1.27 1.27)
				)
				(hide yes)
			)
		)
		(property "Value" "SYM_Radio_Waves_Large"
			(at 0 -6.35 0)
			(effects
				(font
					(size 1.27 1.27)
				)
				(hide yes)
			)
		)
		(property "Footprint" ""
			(at 0 -5.08 0)
			(effects
				(font
					(size 1.27 1.27)
				)
				(hide yes)
			)
		)
		(property "Datasheet" "~"
			(at 0.762 -5.08 0)
			(effects
				(font
					(size 1.27 1.27)
				)
				(hide yes)
			)
		)
		(property "Description" "Radio waves warning symbol, large"
			(at 0 0 0)
			(effects
				(font
					(size 1.27 1.27)
				)
				(hide yes)
			)
		)
		(property "Sim.Enable" "0"
			(at 0 0 0)
			(effects
				(font
					(size 1.27 1.27)
				)
				(hide yes)
			)
		)
		(property "ki_keywords" "symbol logo radio waves warning radiation"
			(at 0 0 0)
			(effects
				(font
					(size 1.27 1.27)
				)
				(hide yes)
			)
		)
		(symbol "SYM_Radio_Waves_Large_0_1"
			(arc
				(start -1.778 -0.254)
				(mid -2.0478 -1.27)
				(end -1.778 -2.286)
				(stroke
					(width 0)
					(type default)
				)
				(fill
					(type none)
				)
			)
			(arc
				(start -1.27 -0.508)
				(mid -1.4811 -1.27)
				(end -1.27 -2.032)
				(stroke
					(width 0)
					(type default)
				)
				(fill
					(type none)
				)
			)
			(arc
				(start -0.762 -0.762)
				(mid -0.9158 -1.27)
				(end -0.762 -1.778)
				(stroke
					(width 0)
					(type default)
				)
				(fill
					(type none)
				)
			)
			(circle
				(center 0 -1.27)
				(radius 0.508)
				(stroke
					(width 0)
					(type default)
				)
				(fill
					(type outline)
				)
			)
			(polyline
				(pts
					(xy -5.08 -5.08) (xy 5.08 -5.08) (xy 0 3.81) (xy -5.08 -5.08)
				)
				(stroke
					(width 0.508)
					(type default)
				)
				(fill
					(type background)
				)
			)
			(polyline
				(pts
					(xy -1.016 -4.572) (xy 1.016 -4.572) (xy 0 -1.27) (xy -1.016 -4.572)
				)
				(stroke
					(width 0)
					(type default)
				)
				(fill
					(type outline)
				)
			)
			(arc
				(start 0.762 -1.778)
				(mid 0.9158 -1.27)
				(end 0.762 -0.762)
				(stroke
					(width 0)
					(type default)
				)
				(fill
					(type none)
				)
			)
			(arc
				(start 1.27 -2.032)
				(mid 1.4811 -1.27)
				(end 1.27 -0.508)
				(stroke
					(width 0)
					(type default)
				)
				(fill
					(type none)
				)
			)
			(arc
				(start 1.778 -2.286)
				(mid 2.0478 -1.27)
				(end 1.778 -0.254)
				(stroke
					(width 0)
					(type default)
				)
				(fill
					(type none)
				)
			)
		)
	)
	(symbol "SYM_Radio_Waves_Small"
		(exclude_from_sim no)
		(in_bom no)
		(on_board no)
		(property "Reference" "#SYM"
			(at 0 3.556 0)
			(effects
				(font
					(size 1.27 1.27)
				)
				(hide yes)
			)
		)
		(property "Value" "SYM_Radio_Waves_Small"
			(at 0 -3.175 0)
			(effects
				(font
					(size 1.27 1.27)
				)
				(hide yes)
			)
		)
		(property "Footprint" ""
			(at 0 -4.445 0)
			(effects
				(font
					(size 1.27 1.27)
				)
				(hide yes)
			)
		)
		(property "Datasheet" "~"
			(at 0.762 -5.08 0)
			(effects
				(font
					(size 1.27 1.27)
				)
				(hide yes)
			)
		)
		(property "Description" "Radio waves warning symbol, small"
			(at 0 0 0)
			(effects
				(font
					(size 1.27 1.27)
				)
				(hide yes)
			)
		)
		(property "Sim.Enable" "0"
			(at 0 0 0)
			(effects
				(font
					(size 1.27 1.27)
				)
				(hide yes)
			)
		)
		(property "ki_keywords" "symbol logo radio waves warning radiation"
			(at 0 0 0)
			(effects
				(font
					(size 1.27 1.27)
				)
				(hide yes)
			)
		)
		(symbol "SYM_Radio_Waves_Small_0_1"
			(arc
				(start -0.762 0.508)
				(mid -0.9158 0)
				(end -0.762 -0.508)
				(stroke
					(width 0)
					(type default)
				)
				(fill
					(type none)
				)
			)
			(arc
				(start -0.508 0.254)
				(mid -0.568 0)
				(end -0.508 -0.254)
				(stroke
					(width 0)
					(type default)
				)
				(fill
					(type none)
				)
			)
			(polyline
				(pts
					(xy -2.54 -1.905) (xy 2.54 -1.905) (xy 0 2.54) (xy -2.54 -1.905)
				)
				(stroke
					(width 0.254)
					(type default)
				)
				(fill
					(type background)
				)
			)
			(polyline
				(pts
					(xy -0.508 -1.524) (xy 0.508 -1.524) (xy 0 0) (xy -0.508 -1.524)
				)
				(stroke
					(width 0)
					(type default)
				)
				(fill
					(type outline)
				)
			)
			(circle
				(center 0 0)
				(radius 0.254)
				(stroke
					(width 0)
					(type default)
				)
				(fill
					(type outline)
				)
			)
			(arc
				(start 0.508 -0.254)
				(mid 0.568 0)
				(end 0.508 0.254)
				(stroke
					(width 0)
					(type default)
				)
				(fill
					(type none)
				)
			)
			(arc
				(start 0.762 -0.508)
				(mid 0.9158 0)
				(end 0.762 0.508)
				(stroke
					(width 0)
					(type default)
				)
				(fill
					(type none)
				)
			)
		)
	)
	(symbol "SYM_Radioactive_Large"
		(exclude_from_sim no)
		(in_bom no)
		(on_board no)
		(property "Reference" "#SYM"
			(at 2.413 7.112 0)
			(effects
				(font
					(size 1.27 1.27)
				)
				(hide yes)
			)
		)
		(property "Value" "SYM_Radioactive_Large"
			(at 2.413 -4.318 0)
			(effects
				(font
					(size 1.27 1.27)
				)
				(hide yes)
			)
		)
		(property "Footprint" ""
			(at 2.413 -3.048 0)
			(effects
				(font
					(size 1.27 1.27)
				)
				(hide yes)
			)
		)
		(property "Datasheet" "~"
			(at 3.175 -3.048 0)
			(effects
				(font
					(size 1.27 1.27)
				)
				(hide yes)
			)
		)
		(property "Description" "Radioactive/radiation warning symbol, large"
			(at 0 0 0)
			(effects
				(font
					(size 1.27 1.27)
				)
				(hide yes)
			)
		)
		(property "Sim.Enable" "0"
			(at 0 0 0)
			(effects
				(font
					(size 1.27 1.27)
				)
				(hide yes)
			)
		)
		(property "ki_keywords" "symbol logo radioactive radiation warning heat"
			(at 0 0 0)
			(effects
				(font
					(size 1.27 1.27)
				)
				(hide yes)
			)
		)
		(symbol "SYM_Radioactive_Large_0_0"
			(polyline
				(pts
					(xy 0 0) (xy 1.27 0)
				)
				(stroke
					(width 0.254)
					(type default)
				)
				(fill
					(type none)
				)
			)
			(polyline
				(pts
					(xy 1.143 2.032) (xy 2.032 1.016)
				)
				(stroke
					(width 0.254)
					(type default)
				)
				(fill
					(type none)
				)
			)
			(polyline
				(pts
					(xy 1.397 -2.032) (xy 1.905 -1.016)
				)
				(stroke
					(width 0.254)
					(type default)
				)
				(fill
					(type none)
				)
			)
			(polyline
				(pts
					(xy 2.921 1.016) (xy 3.683 2.032)
				)
				(stroke
					(width 0.254)
					(type default)
				)
				(fill
					(type none)
				)
			)
			(polyline
				(pts
					(xy 3.048 -1.016) (xy 3.683 -2.032)
				)
				(stroke
					(width 0.254)
					(type default)
				)
				(fill
					(type none)
				)
			)
			(polyline
				(pts
					(xy 3.556 0) (xy 4.826 0)
				)
				(stroke
					(width 0.254)
					(type default)
				)
				(fill
					(type none)
				)
			)
			(polyline
				(pts
					(xy 3.048 -1.016) (xy 3.683 -2.032) (xy 4.191 -1.651) (xy 4.572 -1.016) (xy 4.699 -0.381) (xy 4.826 0)
					(xy 3.556 0) (xy 3.556 -0.381) (xy 3.302 -0.762) (xy 3.048 -1.016)
				)
				(stroke
					(width 0)
					(type default)
				)
				(fill
					(type outline)
				)
			)
			(polyline
				(pts
					(xy 0 0) (xy 1.27 0) (xy 1.27 -0.254) (xy 1.397 -0.508) (xy 1.651 -0.889) (xy 1.905 -1.016) (xy 1.397 -2.032)
					(xy 1.016 -1.778) (xy 0.635 -1.397) (xy 0.254 -0.889) (xy 0 0)
				)
				(stroke
					(width 0)
					(type default)
				)
				(fill
					(type outline)
				)
			)
			(polyline
				(pts
					(xy 2.032 1.016) (xy 1.397 1.905) (xy 1.143 2.032) (xy 1.778 2.286) (xy 2.667 2.159) (xy 3.048 2.159)
					(xy 3.175 2.032) (xy 3.556 1.905) (xy 2.921 1.016) (xy 2.54 1.143) (xy 2.286 1.143) (xy 2.032 1.016)
				)
				(stroke
					(width 0)
					(type default)
				)
				(fill
					(type outline)
				)
			)
			(arc
				(start 0 0)
				(mid 0.419 -1.2071)
				(end 1.397 -2.032)
				(stroke
					(width 0.254)
					(type default)
				)
				(fill
					(type none)
				)
			)
			(arc
				(start 1.27 0)
				(mid 1.4524 -0.587)
				(end 1.905 -1.016)
				(stroke
					(width 0.254)
					(type default)
				)
				(fill
					(type none)
				)
			)
			(circle
				(center 2.413 0)
				(radius 0.8128)
				(stroke
					(width 0.254)
					(type default)
				)
				(fill
					(type outline)
				)
			)
			(arc
				(start 2.921 1.016)
				(mid 2.4757 1.104)
				(end 2.032 1.016)
				(stroke
					(width 0.254)
					(type default)
				)
				(fill
					(type none)
				)
			)
			(arc
				(start 3.048 -1.016)
				(mid 3.4219 -0.568)
				(end 3.556 0)
				(stroke
					(width 0.254)
					(type default)
				)
				(fill
					(type none)
				)
			)
			(arc
				(start 3.683 -2.032)
				(mid 4.5507 -1.1815)
				(end 4.826 0)
				(stroke
					(width 0.254)
					(type default)
				)
				(fill
					(type none)
				)
			)
			(arc
				(start 3.683 2.032)
				(mid 2.413 2.3778)
				(end 1.143 2.032)
				(stroke
					(width 0.254)
					(type default)
				)
				(fill
					(type none)
				)
			)
		)
		(symbol "SYM_Radioactive_Large_0_1"
			(polyline
				(pts
					(xy -2.667 -3.048) (xy 7.493 -3.048) (xy 2.413 5.842) (xy -2.667 -3.048)
				)
				(stroke
					(width 0.508)
					(type default)
				)
				(fill
					(type background)
				)
			)
		)
	)
	(symbol "SYM_Radioactive_Radiation_Small"
		(exclude_from_sim no)
		(in_bom no)
		(on_board no)
		(property "Reference" "#SYM"
			(at 0 3.556 0)
			(effects
				(font
					(size 1.27 1.27)
				)
				(hide yes)
			)
		)
		(property "Value" "SYM_Radioactive_Radiation_Small"
			(at 0 -3.175 0)
			(effects
				(font
					(size 1.27 1.27)
				)
				(hide yes)
			)
		)
		(property "Footprint" ""
			(at 0 -4.445 0)
			(effects
				(font
					(size 1.27 1.27)
				)
				(hide yes)
			)
		)
		(property "Datasheet" "~"
			(at 0.762 -5.08 0)
			(effects
				(font
					(size 1.27 1.27)
				)
				(hide yes)
			)
		)
		(property "Description" "Radioactive/radiation warning symbol, small"
			(at 0 0 0)
			(effects
				(font
					(size 1.27 1.27)
				)
				(hide yes)
			)
		)
		(property "Sim.Enable" "0"
			(at 0 0 0)
			(effects
				(font
					(size 1.27 1.27)
				)
				(hide yes)
			)
		)
		(property "ki_keywords" "symbol logo radioactive radiation warning"
			(at 0 0 0)
			(effects
				(font
					(size 1.27 1.27)
				)
				(hide yes)
			)
		)
		(symbol "SYM_Radioactive_Radiation_Small_0_0"
			(arc
				(start -1.1176 -0.7366)
				(mid -0.8421 -1.2231)
				(end -0.3556 -1.4986)
				(stroke
					(width 0)
					(type default)
				)
				(fill
					(type none)
				)
			)
			(arc
				(start -0.6096 -0.6096)
				(mid -0.4656 -0.8429)
				(end -0.2286 -0.9906)
				(stroke
					(width 0)
					(type default)
				)
				(fill
					(type none)
				)
			)
			(circle
				(center -0.0254 -0.3556)
				(radius 0.3556)
				(stroke
					(width 0.254)
					(type default)
				)
				(fill
					(type outline)
				)
			)
			(polyline
				(pts
					(xy -1.1176 -0.7366) (xy -0.6096 -0.6096)
				)
				(stroke
					(width 0)
					(type default)
				)
				(fill
					(type none)
				)
			)
			(polyline
				(pts
					(xy -0.635 0.6096) (xy -0.381 0.1016)
				)
				(stroke
					(width 0)
					(type default)
				)
				(fill
					(type none)
				)
			)
			(polyline
				(pts
					(xy -0.3556 -1.4986) (xy -0.2286 -0.9906)
				)
				(stroke
					(width 0)
					(type default)
				)
				(fill
					(type none)
				)
			)
			(polyline
				(pts
					(xy 0.3556 -1.4986) (xy 0.2286 -0.9906)
				)
				(stroke
					(width 0)
					(type default)
				)
				(fill
					(type none)
				)
			)
			(polyline
				(pts
					(xy 0.635 0.6096) (xy 0.381 0.1016)
				)
				(stroke
					(width 0)
					(type default)
				)
				(fill
					(type none)
				)
			)
			(polyline
				(pts
					(xy 1.1176 -0.7366) (xy 0.6096 -0.6096)
				)
				(stroke
					(width 0)
					(type default)
				)
				(fill
					(type none)
				)
			)
			(polyline
				(pts
					(xy -0.6096 -0.6604) (xy -0.508 -0.8636) (xy -0.254 -0.9652) (xy -0.4064 -1.4732) (xy -0.762 -1.2192)
					(xy -0.9652 -1.016) (xy -1.0668 -0.7112) (xy -0.6096 -0.6604)
				)
				(stroke
					(width 0)
					(type default)
				)
				(fill
					(type outline)
				)
			)
			(polyline
				(pts
					(xy 0.6096 -0.6096) (xy 0.4572 -0.8636) (xy 0.254 -1.016) (xy 0.4064 -1.4732) (xy 0.7112 -1.27)
					(xy 0.9144 -1.0668) (xy 1.0668 -0.762) (xy 0.6096 -0.6604)
				)
				(stroke
					(width 0)
					(type default)
				)
				(fill
					(type outline)
				)
			)
			(polyline
				(pts
					(xy -0.3556 0.1524) (xy -0.1016 0.254) (xy 0.1524 0.254) (xy 0.3556 0.1016) (xy 0.6096 0.6096)
					(xy 0.3556 0.7112) (xy 0.1016 0.762) (xy -0.1524 0.762) (xy -0.4572 0.6604) (xy -0.6096 0.6096)
					(xy -0.4064 0.1524)
				)
				(stroke
					(width 0)
					(type default)
				)
				(fill
					(type outline)
				)
			)
			(arc
				(start 0.2286 -0.9906)
				(mid 0.4619 -0.8466)
				(end 0.6096 -0.6096)
				(stroke
					(width 0)
					(type default)
				)
				(fill
					(type none)
				)
			)
			(arc
				(start 0.3556 -1.4986)
				(mid 0.8421 -1.2231)
				(end 1.1176 -0.7366)
				(stroke
					(width 0)
					(type default)
				)
				(fill
					(type none)
				)
			)
			(arc
				(start 0.381 0.1016)
				(mid 0 0.2594)
				(end -0.381 0.1016)
				(stroke
					(width 0)
					(type default)
				)
				(fill
					(type none)
				)
			)
			(arc
				(start 0.635 0.6096)
				(mid 0 0.8131)
				(end -0.635 0.6096)
				(stroke
					(width 0)
					(type default)
				)
				(fill
					(type none)
				)
			)
		)
		(symbol "SYM_Radioactive_Radiation_Small_0_1"
			(polyline
				(pts
					(xy -2.54 -1.905) (xy 2.54 -1.905) (xy 0 2.54) (xy -2.54 -1.905)
				)
				(stroke
					(width 0.254)
					(type default)
				)
				(fill
					(type background)
				)
			)
		)
	)
)